<?xml version="1.0" standalone="no"?>
<!DOCTYPE svg PUBLIC "-//W3C//DTD SVG 1.1//EN" "http://www.w3.org/Graphics/SVG/1.1/DTD/svg11.dtd" >
<svg xmlns="http://www.w3.org/2000/svg">
<metadata></metadata>
<defs>
<font id="source_sans_proitalic" horiz-adv-x="983" >
<font-face units-per-em="2048" ascent="1536" descent="-512" />
<missing-glyph horiz-adv-x="393" />
<glyph horiz-adv-x="2048" />
<glyph horiz-adv-x="2048" />
<glyph unicode="&#xd;" horiz-adv-x="2048" />
<glyph unicode=" "  horiz-adv-x="393" />
<glyph unicode="&#x09;" horiz-adv-x="393" />
<glyph unicode="&#xa0;" horiz-adv-x="393" />
<glyph unicode="!" horiz-adv-x="577" d="M88 78q0 54 40 98.5t97 44.5q44 0 69 -29t25 -75q0 -55 -38.5 -98.5t-94.5 -43.5q-44 0 -71 29t-27 74zM209 401l137 785l31 188h158l-39 -188l-177 -785h-110z" />
<glyph unicode="&#x22;" horiz-adv-x="833" d="M262 872l47 314l31 188h154l-39 -188l-86 -314h-107zM602 872l45 314l31 188h156l-41 -188l-84 -314h-107z" />
<glyph unicode="#" horiz-adv-x="980" d="M49 420l27 112h168l94 308h-164l29 112h172l121 379h104l-119 -379h256l121 379h105l-119 -379h162l-29 -112h-168l-94 -308h166l-29 -112h-174l-131 -420h-107l133 420h-258l-131 -420h-106l133 420h-162zM350 532h260l95 308h-261z" />
<glyph unicode="$" d="M35 168l100 98q51 -69 124 -114.5t159 -45.5q113 0 184.5 66.5t71.5 171.5q0 60 -24 111.5t-63 89.5t-85.5 74t-93 72.5t-85.5 76t-63 94t-24 117.5q0 150 100.5 249.5t259.5 108.5l41 201h115l-43 -211q145 -38 241 -168l-102 -92q-44 63 -104.5 102t-127.5 39 q-99 0 -162 -58.5t-63 -150.5q0 -50 24 -94.5t62.5 -78.5t85 -68t93 -72t85 -80.5t62.5 -103.5t24 -133q0 -162 -105 -273t-276 -121l-40 -200h-115l41 209q-87 18 -164 67.5t-133 116.5z" />
<glyph unicode="%" horiz-adv-x="1619" d="M125 840q0 131 42.5 252t130 203.5t200.5 82.5q116 0 184 -87t68 -224q0 -97 -25.5 -192t-71.5 -173t-118 -126t-158 -48q-116 0 -184 87.5t-68 224.5zM246 848q0 -99 34.5 -158t106.5 -59q73 0 130 67t84.5 162.5t27.5 196.5q0 99 -35 159t-105 60q-74 0 -131 -67 t-84.5 -163t-27.5 -198zM276 -25l992 1401h106l-991 -1401h-107zM915 287q0 131 42.5 252t130 203.5t200.5 82.5q116 0 184 -87t68 -224q0 -97 -25.5 -192t-71.5 -173t-118 -126t-158 -48q-116 0 -184 87.5t-68 224.5zM1036 295q0 -99 35 -158t107 -59q73 0 130 67t84 162.5 t27 196.5q0 100 -34.5 159.5t-106.5 59.5q-73 0 -130 -67t-84.5 -163t-27.5 -198z" />
<glyph unicode="&#x26;" horiz-adv-x="1191" d="M31 289q0 64 19 122t49 102.5t77 88t91.5 74.5t103.5 67q-37 118 -37 232q0 168 104 280.5t248 112.5q107 0 164 -60.5t57 -158.5q0 -44 -12 -85t-29.5 -74t-49.5 -69t-58.5 -60.5t-72 -57.5t-75 -52t-80.5 -51q85 -212 252 -391q143 151 262 412h144 q-142 -305 -318 -494q113 -90 209 -125l-65 -127q-125 41 -252 150q-188 -150 -393 -150q-153 0 -245.5 86t-92.5 228zM186 309q0 -94 58.5 -151.5t152.5 -57.5q138 0 279 109q-172 190 -262 414q-109 -74 -168.5 -148t-59.5 -166zM469 983q0 -74 23 -168q68 41 111.5 71 t87.5 71.5t65.5 87.5t21.5 98q0 50 -25.5 82t-76.5 32q-88 0 -147.5 -77.5t-59.5 -196.5z" />
<glyph unicode="'" horiz-adv-x="495" d="M262 872l47 314l31 188h154l-39 -188l-86 -314h-107z" />
<glyph unicode="(" horiz-adv-x="595" d="M133 272q0 343 118.5 632.5t358.5 592.5l92 -51q-438 -556 -438 -1190q0 -150 23 -308t65 -270l-102 -38q-52 138 -84.5 304.5t-32.5 327.5z" />
<glyph unicode=")" horiz-adv-x="600" d="M-90 -307q436 551 436 1188q0 154 -22 309.5t-64 267.5l102 39q52 -138 84.5 -304.5t32.5 -326.5q0 -343 -118.5 -632t-358.5 -594z" />
<glyph unicode="*" horiz-adv-x="825" d="M256 1229l37 82l203 -68l51 217l90 -8l-16 -219l210 29l15 -88l-211 -64l78 -199l-82 -47l-107 180l-164 -155l-65 59l141 180z" />
<glyph unicode="+" d="M98 618v117h359v400h123v-400h358v-117h-360v-407h-123v407h-357z" />
<glyph unicode="," horiz-adv-x="495" d="M-63 -242q95 36 153.5 97t73.5 137h-4q-47 0 -77 26.5t-30 71.5q0 53 36.5 92t94.5 39q53 0 82 -36t29 -99q0 -150 -92 -264.5t-244 -157.5z" />
<glyph unicode="-" horiz-adv-x="612" d="M72 455l24 120h449l-27 -120h-446z" />
<glyph unicode="." horiz-adv-x="495" d="M47 78q0 54 40 98.5t97 44.5q43 0 69 -29.5t26 -74.5q0 -55 -39.5 -98.5t-96.5 -43.5q-44 0 -70 29t-26 74z" />
<glyph unicode="/" horiz-adv-x="696" d="M-147 -328l888 1782h115l-891 -1782h-112z" />
<glyph unicode="0" d="M86 420q0 239 74 450t199 336t268 125q100 0 173 -59.5t109.5 -160t36.5 -228.5q0 -180 -43 -347.5t-115.5 -290.5t-171.5 -196.5t-206 -73.5q-152 0 -238 124t-86 321zM233 414q0 -142 46.5 -228t138.5 -86q102 0 191.5 120t140.5 302t51 367q0 142 -47 228.5t-138 86.5 q-101 0 -191 -120.5t-141 -302.5t-51 -367z" />
<glyph unicode="1" d="M53 0l27 131h285l196 979h-231l20 102q171 23 287 95h121l-238 -1176h266l-24 -131h-709z" />
<glyph unicode="2" d="M-20 0l16 94q353 299 441 379q209 191 280 318q55 98 55 198q0 94 -55 153.5t-158 59.5q-125 0 -268 -131l-80 98q189 162 367 162q163 0 255.5 -89t92.5 -232q0 -61 -16.5 -120.5t-36 -107.5t-73.5 -115t-90.5 -109.5t-128.5 -127t-145 -131.5t-180 -157q-5 -5 -8 -7 h565l-25 -135h-808z" />
<glyph unicode="3" d="M-18 201l104 82q53 -78 129 -127.5t170 -49.5q139 0 228 76.5t89 194.5q0 111 -90.5 175t-287.5 64l24 119q116 0 202.5 24t134 65t69.5 86.5t22 95.5q0 89 -53 142.5t-154 53.5q-59 0 -128 -28t-128 -76l-80 104q170 129 361 129q162 0 252 -81t90 -218 q0 -127 -78 -220.5t-227 -135.5v-8q108 -36 168.5 -110t60.5 -175q0 -185 -134 -296.5t-343 -111.5q-126 0 -230.5 63t-170.5 163z" />
<glyph unicode="4" d="M16 360l19 107l700 840h172l-164 -820h172l-26 -127h-170l-72 -360h-147l73 360h-557zM209 487h389l76 387q8 41 31 130.5t32 130.5h-8q-103 -142 -158 -213z" />
<glyph unicode="5" d="M-8 197l102 84q53 -81 120.5 -128t172.5 -47q132 0 228 97.5t96 251.5q0 123 -63.5 186.5t-172.5 63.5q-59 0 -104 -15t-115 -53l-68 53l164 617h613l-27 -136h-477l-107 -385q84 41 172 41q153 0 247.5 -89.5t94.5 -254.5q0 -150 -69.5 -268t-180.5 -179t-241 -61 q-126 0 -223 61t-162 161z" />
<glyph unicode="6" d="M104 418q0 262 79.5 471t219 325.5t312.5 116.5q180 0 284 -166l-106 -84q-70 119 -186 119q-155 0 -276.5 -153.5t-162.5 -407.5q64 73 147.5 112.5t155.5 39.5q146 0 232 -90.5t86 -249.5q0 -127 -55 -236t-152.5 -174.5t-214.5 -65.5q-165 0 -264 123.5t-99 319.5z M252 414q0 -142 60.5 -229t162.5 -87q110 0 189 101t79 229q0 115 -53.5 180.5t-154.5 65.5q-58 0 -135 -39.5t-146 -126.5q-2 -31 -2 -94z" />
<glyph unicode="7" d="M219 1171l29 136h807l-21 -103q-99 -93 -179.5 -189t-141 -194.5t-107 -193t-83 -203t-62 -206t-51.5 -218.5h-164q93 389 227.5 662t372.5 509h-627z" />
<glyph unicode="8" d="M72 315q0 72 24.5 135t68.5 111t96.5 84t115.5 64v8q-59 59 -88 120t-29 138q0 162 111.5 259t271.5 97q86 0 157.5 -32t118 -102.5t46.5 -168.5q0 -228 -250 -369v-8q71 -48 123.5 -124.5t52.5 -170.5q0 -171 -127.5 -276t-308.5 -105q-57 0 -112 13t-104 40.5t-86 67 t-59 96t-22 123.5zM215 332q0 -110 71.5 -175t176.5 -65q113 0 196.5 69.5t83.5 186.5q0 25 -5.5 48t-12.5 42t-23.5 39t-28 33.5t-37 32.5t-39.5 28.5t-47 28.5t-47.5 27t-51.5 28q-113 -63 -174.5 -139.5t-61.5 -183.5zM403 983q0 -97 55.5 -158t172.5 -118 q196 129 196 301q0 94 -55 149t-141 55q-93 0 -160.5 -63t-67.5 -166z" />
<glyph unicode="9" d="M37 141l106 84q70 -119 189 -119q153 0 273 153t161 405q-64 -71 -146 -109.5t-153 -38.5q-147 0 -233.5 90.5t-86.5 249.5q0 127 55 236t152.5 174t214.5 65q166 0 264.5 -123t98.5 -319t-46.5 -366.5t-127 -290.5t-193.5 -188.5t-243 -68.5q-181 0 -285 166zM295 879 q0 -116 53.5 -181t153.5 -65q58 0 134.5 39.5t145.5 126.5q2 31 2 94q0 142 -60.5 228.5t-162.5 86.5q-73 0 -135 -48t-96.5 -123.5t-34.5 -157.5z" />
<glyph unicode=":" horiz-adv-x="495" d="M47 78q0 54 40 98.5t97 44.5q43 0 69 -29.5t26 -74.5q0 -55 -39.5 -98.5t-96.5 -43.5q-44 0 -70 29t-26 74zM178 834q0 54 40 98.5t97 44.5q43 0 69 -30t26 -75q0 -54 -39.5 -97.5t-96.5 -43.5q-43 0 -69.5 29.5t-26.5 73.5z" />
<glyph unicode=";" horiz-adv-x="495" d="M-63 -242q95 36 153.5 97t73.5 137h-4q-47 0 -77 26.5t-30 71.5q0 53 36.5 92t94.5 39q53 0 82 -36t29 -99q0 -150 -92 -264.5t-244 -157.5zM178 834q0 54 40 98.5t97 44.5q43 0 69 -30t26 -75q0 -54 -39.5 -97.5t-96.5 -43.5q-43 0 -69.5 29.5t-26.5 73.5z" />
<glyph unicode="&#x3c;" d="M94 616v119l844 342v-133l-416 -164l-256 -98v-8l256 -101l416 -161v-136z" />
<glyph unicode="=" d="M98 397v119h840v-119h-840zM98 836v118h840v-118h-840z" />
<glyph unicode="&#x3e;" d="M98 276v136l418 161l254 101v8l-254 98l-418 164v133l844 -342v-119z" />
<glyph unicode="?" horiz-adv-x="837" d="M193 78q0 54 40 98.5t97 44.5q43 0 68.5 -29.5t25.5 -74.5q0 -55 -38.5 -98.5t-96.5 -43.5q-44 0 -70 29t-26 74zM227 1255q63 64 146 103t172 39q143 0 227 -76t84 -207q0 -67 -22 -127t-57.5 -106t-79 -89t-87.5 -86t-82 -87t-64.5 -100.5t-31.5 -119.5l-135 13 q4 70 28.5 132.5t60.5 109t78.5 89.5t84.5 82t76 78t55.5 86t21.5 98q0 84 -47 131.5t-129 47.5q-117 0 -215 -105z" />
<glyph unicode="@" horiz-adv-x="1667" d="M92 334q0 164 48 317t133.5 272.5t197 209.5t244 138t268.5 48q189 0 328 -79t209.5 -215t70.5 -312q0 -145 -36 -264t-96.5 -195t-137 -117t-160.5 -41q-72 0 -121 42t-63 114h-6q-111 -137 -236 -137q-98 0 -166.5 74.5t-68.5 201.5q0 120 53.5 232.5t147 184 t200.5 71.5q96 0 150 -105h4l26 88h105l-103 -444q-23 -100 2.5 -156.5t104.5 -56.5q109 0 199 133.5t90 353.5q0 113 -30.5 207t-91.5 165t-160 110.5t-228 39.5q-139 0 -276 -66.5t-244 -179t-173.5 -274t-66.5 -338.5q0 -133 41.5 -242t113 -179t166.5 -108t203 -38 q153 0 277 76l47 -94q-166 -88 -336 -88q-132 0 -246.5 44t-200 125.5t-134 205.5t-48.5 276zM625 406q0 -89 38 -136t101 -47q92 0 184 125l74 330q-49 92 -121 92q-77 0 -142 -58t-99.5 -141t-34.5 -165z" />
<glyph unicode="A" horiz-adv-x="1044" d="M-109 0l730 1343h184l156 -1343h-166l-37 420h-475l-215 -420h-177zM346 543h399l-20 229q-36 424 -37 438h-8q-95 -206 -215 -438z" />
<glyph unicode="B" horiz-adv-x="1193" d="M72 0l268 1343h358q196 0 306 -76t110 -220q0 -128 -89 -218.5t-210 -117.5l-2 -9q112 -27 180 -94.5t68 -177.5q0 -109 -42 -192.5t-118 -135t-176.5 -77t-222.5 -25.5h-430zM254 125h233q199 0 308.5 72.5t109.5 224.5q0 103 -80.5 165t-226.5 62h-238zM383 766h192 q186 0 281.5 70t95.5 188q0 195 -293 195h-186z" />
<glyph unicode="C" horiz-adv-x="1126" d="M117 518q0 158 51 310.5t139.5 272.5t220.5 193.5t283 73.5q110 0 193.5 -53.5t136.5 -145.5l-111 -84q-90 146 -227 146q-93 0 -176.5 -41t-145.5 -111t-108 -160t-69 -189.5t-23 -197.5q0 -193 84 -306t258 -113q141 0 284 120l72 -102q-178 -156 -385 -156 q-226 0 -351.5 148t-125.5 395z" />
<glyph unicode="D" horiz-adv-x="1212" d="M72 0l268 1343h250q277 0 423 -137t146 -387q0 -243 -86 -428t-251.5 -288t-389.5 -103h-360zM256 131h176q171 0 300 86t197 239.5t68 352.5q0 193 -106.5 299t-306.5 106h-111z" />
<glyph unicode="E" horiz-adv-x="1030" d="M72 0l268 1343h741l-26 -133h-584l-86 -436h494l-29 -135h-490l-104 -504h602l-29 -135h-757z" />
<glyph unicode="F" horiz-adv-x="968" d="M72 0l268 1343h741l-26 -133h-584l-92 -467h493l-26 -135h-492l-123 -608h-159z" />
<glyph unicode="G" horiz-adv-x="1204" d="M117 518q0 128 31.5 252t93.5 231.5t147 189.5t199.5 129.5t242.5 47.5q220 0 338 -199l-112 -84q-87 146 -234 146q-98 0 -185.5 -41.5t-151.5 -111t-111 -159.5t-70.5 -189.5t-23.5 -197.5q0 -93 20 -167.5t61 -132.5t111 -89.5t164 -31.5q132 0 229 82l76 370h-278 l26 131h422l-117 -581q-165 -138 -381 -138q-239 0 -368 146t-129 397z" />
<glyph unicode="H" horiz-adv-x="1273" d="M72 0l268 1343h160l-115 -567h606l115 567h158l-269 -1343h-159l129 639h-607l-127 -639h-159z" />
<glyph unicode="I" horiz-adv-x="516" d="M72 0l268 1343h160l-269 -1343h-159z" />
<glyph unicode="J" horiz-adv-x="933" d="M-4 182l104 88q30 -75 88.5 -116t141.5 -41q99 0 164 75t92 211l188 944h160l-193 -966q-36 -182 -141.5 -292t-273.5 -110q-117 0 -201.5 55t-128.5 152z" />
<glyph unicode="K" horiz-adv-x="1144" d="M72 0l268 1343h160l-133 -663h6l674 663h180l-504 -516l305 -827h-166l-258 725l-280 -274l-93 -451h-159z" />
<glyph unicode="L" horiz-adv-x="946" d="M72 0l268 1343h160l-242 -1208h565l-26 -135h-725z" />
<glyph unicode="M" horiz-adv-x="1443" d="M72 0l268 1343h190l117 -725l45 -278h8l144 278l399 725h191l-269 -1343h-153l155 758q39 191 97 395h-9l-161 -299l-396 -713h-90l-125 713l-45 299h-8q-41 -313 -57 -395l-152 -758h-149z" />
<glyph unicode="N" horiz-adv-x="1267" d="M72 0l268 1343h160l307 -860l86 -280h8q37 309 62 428l141 712h153l-268 -1343h-158l-303 858l-88 289h-8q-30 -257 -63 -424l-144 -723h-153z" />
<glyph unicode="O" horiz-adv-x="1296" d="M123 539q0 122 30.5 243t89 226t137 186t181.5 127.5t215 46.5q222 0 343.5 -151.5t121.5 -409.5q0 -123 -30.5 -244.5t-89 -226.5t-137 -186.5t-181.5 -128t-215 -46.5q-222 0 -343.5 152t-121.5 412zM285 551q0 -204 77.5 -321t233.5 -117q104 0 196.5 62t154 160.5 t97 219t35.5 238.5q0 205 -78 321.5t-233 116.5q-104 0 -196.5 -62t-154 -160t-97 -218.5t-35.5 -239.5z" />
<glyph unicode="P" horiz-adv-x="1126" d="M72 0l268 1343h379q198 0 310 -79.5t112 -247.5q0 -121 -43.5 -213t-123 -148.5t-185 -85t-236.5 -28.5h-215l-107 -541h-159zM365 670h194q208 0 316 82t108 243q0 115 -76 168.5t-227 53.5h-207z" />
<glyph unicode="Q" horiz-adv-x="1296" d="M123 539q0 122 30.5 243t89 226t137 186t181.5 127.5t215 46.5q222 0 343.5 -151.5t121.5 -409.5q0 -198 -75.5 -381.5t-216.5 -308t-314 -140.5q34 -86 118.5 -131t196.5 -45q44 0 113 15l10 -125q-71 -23 -133 -23q-175 0 -297 80t-172 240q-168 38 -258 183t-90 368z M285 551q0 -204 77.5 -321t233.5 -117q104 0 196.5 62t154 160.5t97 219t35.5 238.5q0 205 -78 321.5t-233 116.5q-104 0 -196.5 -62t-154 -160t-97 -218.5t-35.5 -239.5z" />
<glyph unicode="R" horiz-adv-x="1136" d="M72 0l268 1343h369q197 0 308 -75.5t111 -237.5q0 -180 -108.5 -295.5t-286.5 -150.5l236 -584h-170l-221 569h-234l-113 -569h-159zM371 698h202q190 0 294 84t104 228q0 108 -75 157.5t-226 49.5h-197z" />
<glyph unicode="S" horiz-adv-x="1036" d="M25 213l116 88q128 -190 346 -190q125 0 207 70t82 184q0 69 -42.5 119.5t-125.5 101.5l-155 94q-97 59 -152 134t-55 181q0 155 119.5 264t298.5 109q116 0 215 -51.5t165 -136.5l-104 -95q-125 146 -289 146q-109 0 -176 -65t-67 -152q0 -49 25 -90.5t58.5 -67.5 t90.5 -61l155 -93q102 -60 152.5 -133.5t50.5 -181.5q0 -180 -131.5 -296t-335.5 -116q-286 0 -448 238z" />
<glyph unicode="T" horiz-adv-x="1044" d="M190 1206l27 137h940l-27 -137h-391l-239 -1206h-160l240 1206h-390z" />
<glyph unicode="U" horiz-adv-x="1261" d="M162 399q0 78 20 191l152 753h160l-154 -768q-18 -91 -18 -161q0 -301 272 -301q122 0 211.5 98.5t130.5 308.5l166 823h155l-167 -829q-55 -279 -185 -409t-319 -130q-205 0 -314.5 108t-109.5 316z" />
<glyph unicode="V" horiz-adv-x="1015" d="M168 1343h162l55 -745q26 -316 33 -442h8q162 341 213 442l371 745h172l-703 -1343h-190z" />
<glyph unicode="W" horiz-adv-x="1548" d="M195 0l18 1343h164l-21 -739q-3 -58 -8.5 -207t-11.5 -229h8q16 36 86.5 194.5t104.5 241.5l335 739h146l18 -739q2 -141 2 -436h8q31 83 90.5 233t79.5 203l291 739h158l-553 -1343h-203l-14 821q0 157 6 316h-8q-20 -56 -131 -316l-367 -821h-198z" />
<glyph unicode="X" horiz-adv-x="1011" d="M-74 0l516 696l-221 647h172l115 -356q2 -8 21.5 -77t33.5 -111h6q100 140 136 194l245 350h168l-485 -659l239 -684h-172l-122 377q-8 27 -30.5 98t-33.5 111h-6q-63 -86 -150 -217l-262 -369h-170z" />
<glyph unicode="Y" horiz-adv-x="944" d="M170 1343h164l92 -387q14 -53 35.5 -149t32.5 -141h8q122 199 184 292l254 385h170l-561 -819l-107 -524h-157l104 524z" />
<glyph unicode="Z" horiz-adv-x="1048" d="M-2 0l20 96l871 1114h-615l29 133h805l-21 -94l-864 -1114h678l-31 -135h-872z" />
<glyph unicode="[" horiz-adv-x="598" d="M16 -311l353 1761h346l-15 -92h-231l-313 -1577h229l-23 -92h-346z" />
<glyph unicode="\" horiz-adv-x="696" d="M180 1454h107l239 -1782h-110z" />
<glyph unicode="]" horiz-adv-x="600" d="M-100 -311l20 92h227l318 1577h-229l16 92h350l-352 -1761h-350z" />
<glyph unicode="^" horiz-adv-x="980" d="M170 580l299 792h127l299 -792h-131l-133 364l-92 273h-7l-96 -273l-131 -364h-135z" />
<glyph unicode="_" horiz-adv-x="989" d="M-74 -254l23 102h936l-21 -102h-938z" />
<glyph unicode="`" horiz-adv-x="1058" d="M520 1458h154l121 -289h-115z" />
<glyph unicode="a" horiz-adv-x="1099" d="M80 336q0 186 77 345t200.5 249t260.5 90q78 0 141 -40.5t99 -109.5h8l39 125h127l-198 -995h-129l16 147h-8q-75 -79 -165 -125.5t-181 -46.5q-133 0 -210 94.5t-77 266.5zM242 360q0 -126 48 -190t134 -64q168 0 313 191l90 444q-81 148 -202 148q-97 0 -186 -74.5 t-143 -197.5t-54 -257z" />
<glyph unicode="b" horiz-adv-x="1097" d="M63 0l291 1458h158l-80 -389l-45 -197h4q181 148 338 148q133 0 210 -94.5t77 -266.5q0 -140 -45.5 -268t-120 -218.5t-172 -144t-199.5 -53.5q-78 0 -140.5 40.5t-98.5 109.5h-7l-40 -125h-130zM270 254q78 -148 203 -148q97 0 185.5 74.5t142 198t53.5 258.5 q0 124 -48 188t-134 64q-70 0 -153.5 -44t-153.5 -118z" />
<glyph unicode="c" horiz-adv-x="890" d="M76 375q0 109 29.5 209.5t82.5 178.5t122.5 136.5t152 89.5t168.5 31q153 0 258 -121l-92 -98q-40 48 -79.5 69t-96.5 21q-98 0 -187 -69t-143.5 -186.5t-54.5 -250.5q0 -136 59 -207.5t176 -71.5q105 0 221 89l70 -103q-153 -117 -320 -117q-166 0 -266 106t-100 294z " />
<glyph unicode="d" horiz-adv-x="1095" d="M80 336q0 186 77 345t200.5 249t260.5 90q77 0 137.5 -39t98.5 -107h6l33 195l78 389h157l-294 -1458h-129l16 147h-8q-75 -79 -165 -125.5t-181 -46.5q-133 0 -210 94.5t-77 266.5zM242 360q0 -126 48 -190t134 -64q165 0 313 191l90 444q-81 148 -202 148 q-97 0 -186 -74.5t-143 -197.5t-54 -257z" />
<glyph unicode="e" horiz-adv-x="985" d="M76 391q0 136 46.5 255.5t122 200t170.5 127t193 46.5q108 0 178 -48.5t99.5 -127t29.5 -185.5q0 -89 -34 -194h-648q-6 -46 -7 -85q0 -120 59 -188q78 -92 219 -92q108 0 223 86l61 -104q-150 -107 -321 -107q-180 0 -285.5 109.5t-105.5 306.5zM250 571h522 q10 55 10 103q0 95 -46 158t-146 63q-111 0 -206.5 -89.5t-133.5 -234.5z" />
<glyph unicode="f" horiz-adv-x="577" d="M88 0l174 868h-129l23 117l133 10l33 166q31 154 111 238t204 84q93 0 176 -49l-55 -113q-56 35 -111 35q-130 0 -168 -191l-35 -170h201l-24 -127h-203l-174 -868h-156z" />
<glyph unicode="g" horiz-adv-x="1087" d="M-4 -322l74 109q137 -119 280 -119q123 0 201.5 78.5t112.5 218.5l49 205h-6q-167 -160 -338 -160q-130 0 -209.5 91t-79.5 259q0 133 44.5 256.5t117.5 211t169 140t195 52.5q77 0 140.5 -40.5t99.5 -109.5h6l39 125h129l-209 -1042q-40 -199 -160 -305.5t-307 -106.5 q-184 0 -348 137zM242 383q0 -119 46.5 -180.5t131.5 -61.5q73 0 156 45.5t151 128.5l88 426q-87 148 -203 148q-94 0 -180 -71.5t-138 -189t-52 -245.5z" />
<glyph unicode="h" horiz-adv-x="1062" d="M63 0l291 1458h158l-98 -481l-33 -125h8q96 82 177 125t165 43q236 0 236 -248q0 -59 -17 -137l-127 -635h-155l123 614q16 85 16 117q0 154 -148 154q-119 0 -299 -180l-141 -705h-156z" />
<glyph unicode="i" horiz-adv-x="485" d="M63 0l199 995h158l-201 -995h-156zM295 1294q0 50 35.5 84.5t83.5 34.5q42 0 71 -25.5t29 -68.5q0 -50 -35.5 -83.5t-83.5 -33.5q-42 0 -71 24.5t-29 67.5z" />
<glyph unicode="j" horiz-adv-x="487" d="M-254 -406l51 117q44 -26 94 -26q55 0 90 47.5t56 140.5l227 1122h158l-227 -1120q-65 -319 -295 -319q-86 0 -154 38zM297 1294q0 51 34.5 85t84.5 34q40 0 69 -25.5t29 -68.5q0 -50 -35.5 -83.5t-83.5 -33.5q-40 0 -69 25t-29 67z" />
<glyph unicode="k" horiz-adv-x="974" d="M63 0l291 1458h158l-197 -989h4l510 526h181l-398 -415l240 -580h-160l-190 485l-230 -233l-53 -252h-156z" />
<glyph unicode="l" horiz-adv-x="507" d="M90 104q0 34 12 86l252 1268h158l-256 -1276q-4 -20 -4 -39q0 -37 35 -37q11 0 32 7l3 -121q-46 -17 -99 -17q-65 0 -99 33.5t-34 95.5z" />
<glyph unicode="m" horiz-adv-x="1636" d="M63 0l197 995h129l-14 -149h8q185 174 328 174q204 0 229 -195q205 195 352 195q236 0 236 -248q0 -44 -17 -137l-127 -635h-157l125 614q16 85 16 117q0 154 -145 154q-46 0 -121.5 -46t-159.5 -134l-141 -705h-156l123 614q16 85 16 117q0 154 -143 154 q-48 0 -123 -45.5t-158 -134.5l-141 -705h-156z" />
<glyph unicode="n" horiz-adv-x="1075" d="M63 0l197 995h129l-14 -149h8q97 84 179.5 129t168.5 45q236 0 236 -248q0 -59 -17 -137l-127 -635h-155l123 614q16 85 16 117q0 154 -148 154q-119 0 -299 -180l-141 -705h-156z" />
<glyph unicode="o" horiz-adv-x="1054" d="M80 375q0 137 45.5 259t120.5 205.5t172 132t198 48.5q163 0 260 -107t97 -292q0 -137 -46 -259t-121.5 -206t-173 -132.5t-198.5 -48.5q-162 0 -258 107.5t-96 292.5zM238 385q0 -135 55 -207t158 -72q91 0 174.5 67t135.5 184.5t52 252.5t-55 208t-158 73 q-90 0 -173.5 -67.5t-136 -185.5t-52.5 -253z" />
<glyph unicode="p" horiz-adv-x="1095" d="M-20 -420l282 1415h129l-12 -131h6q186 156 344 156q132 0 209.5 -95t77.5 -266q0 -140 -45.5 -268t-120 -218.5t-172 -144t-199.5 -53.5q-75 0 -137 39t-102 105h-4l-37 -213l-64 -326h-155zM270 250q78 -144 203 -144q97 0 185.5 74.5t142 198t53.5 258.5 q0 124 -48 188t-134 64q-70 0 -153.5 -44t-153.5 -120z" />
<glyph unicode="q" horiz-adv-x="1099" d="M80 336q0 186 77 345t200.5 249t260.5 90q78 0 141 -40.5t99 -109.5h8l39 125h127l-282 -1415h-158l67 326l62 244h-4q-78 -79 -169 -127t-181 -48q-133 0 -210 94.5t-77 266.5zM242 360q0 -126 48 -190t134 -64q73 0 157 49t156 142l90 444q-81 148 -202 148 q-97 0 -186 -74.5t-143 -197.5t-54 -257z" />
<glyph unicode="r" horiz-adv-x="700" d="M63 0l197 995h129l-22 -190h8q142 215 309 215q48 0 94 -19l-55 -139q-34 17 -86 17q-75 0 -153 -65.5t-140 -184.5l-125 -629h-156z" />
<glyph unicode="s" horiz-adv-x="823" d="M-8 164l98 78q48 -67 114.5 -106.5t141.5 -39.5q86 0 148.5 49t62.5 117q0 53 -38 92t-144 97q-120 65 -174 127.5t-54 144.5q0 130 100 213.5t242 83.5q167 0 293 -133l-90 -88q-94 98 -207 98q-79 0 -133.5 -46t-54.5 -110q0 -29 12 -53t40 -46t49 -35t64 -36 q7 -4 11 -6q131 -72 182.5 -135.5t51.5 -146.5q0 -138 -105 -223t-268 -85q-98 0 -194 54.5t-148 134.5z" />
<glyph unicode="t" horiz-adv-x="665" d="M123 868l22 117l156 10l74 275h133l-55 -275h252l-25 -127h-256l-117 -569q-6 -37 -6 -74q0 -63 29 -93t98 -30q35 0 104 31l35 -113q-101 -45 -188 -45q-123 0 -180.5 61t-57.5 161q0 8 11 110l116 561h-145z" />
<glyph unicode="u" horiz-adv-x="1081" d="M115 223q0 66 16 137l127 635h158l-125 -614q-17 -90 -17 -117q0 -153 148 -153q121 0 295 180l141 704h156l-199 -995h-129l16 152h-8q-95 -84 -178 -130.5t-166 -46.5q-235 0 -235 248z" />
<glyph unicode="v" horiz-adv-x="917" d="M121 995h155l74 -575q5 -48 14.5 -148.5t14.5 -148.5h8q77 161 148 297l292 575h158l-530 -995h-189z" />
<glyph unicode="w" horiz-adv-x="1447" d="M143 995h156l33 -585q3 -141 6 -279h8q18 41 57 135t62 144l262 585h154l34 -585q2 -45 5.5 -138t5.5 -141h8q13 31 51.5 128t63.5 151l260 585h147l-452 -995h-195l-29 545q0 24 -6 293h-8q-14 -32 -56 -135.5t-65 -157.5l-242 -545h-188z" />
<glyph unicode="x" horiz-adv-x="878" d="M-90 0l446 528l-186 467h160l86 -221q1 -1 59 -168h8q14 19 59 77.5t68 90.5l174 221h170l-409 -501l203 -494h-162l-90 233q-8 20 -22 57.5t-26 69t-24 58.5h-8q-36 -51 -142 -182l-192 -236h-172z" />
<glyph unicode="y" horiz-adv-x="917" d="M-127 -399l51 116q37 -18 74 -18q73 0 140 60.5t120 166.5l37 72l-170 997h156l77 -559q17 -110 33 -297h8q7 13 63 127t85 170l287 559h155l-586 -1079q-88 -165 -185.5 -254.5t-229.5 -89.5q-58 0 -115 29z" />
<glyph unicode="z" horiz-adv-x="839" d="M-20 0l16 90l661 778h-452l26 127h650l-17 -92l-661 -776h520l-25 -127h-718z" />
<glyph unicode="{" horiz-adv-x="593" d="M66 518l22 103q167 0 201 161q11 58 29 187.5t34 204.5q30 158 90.5 217t184.5 59h94l-21 -92h-53q-78 0 -114.5 -44.5t-57.5 -148.5q-11 -56 -29.5 -180t-31.5 -188q-21 -101 -61 -156.5t-111 -73.5v-8q90 -31 90 -125q0 -73 -53.5 -281.5t-53.5 -271.5 q0 -53 24.5 -76.5t88.5 -23.5h49l-20 -92h-91q-95 0 -137.5 39t-42.5 125q0 80 56.5 287.5t56.5 262.5q0 115 -143 115z" />
<glyph unicode="|" horiz-adv-x="473" d="M195 -512v2048h106v-2048h-106z" />
<glyph unicode="}" horiz-adv-x="600" d="M-106 -311l18 92h53q79 0 116 43t56 147q13 64 32.5 189t29.5 180q22 103 61.5 158t110.5 73v9q-90 30 -90 125q0 72 53 279.5t53 270.5q0 55 -24.5 79t-86.5 24h-51l21 92h90q96 0 139 -40t43 -124q0 -80 -56 -289t-56 -266q0 -110 143 -110l-23 -103q-170 0 -200 -162 q-11 -59 -29.5 -189t-34.5 -206q-32 -156 -92 -214t-182 -58h-94z" />
<glyph unicode="~" d="M92 641q49 91 113 136.5t131 45.5q50 0 102 -27.5t87.5 -60.5t79 -60.5t79.5 -27.5q88 0 152 125l88 -57q-49 -91 -113.5 -137t-130.5 -46q-41 0 -82.5 18t-74.5 44t-64 52.5t-64 44.5t-63 18q-88 0 -152 -125z" />
<glyph unicode="&#xa2;" d="M160 588q0 99 28 188t76.5 155.5t111.5 117t133.5 79t143.5 35.5l41 209h101l-41 -211q122 -17 225 -135l-96 -92q-39 44 -74.5 67.5t-81.5 30.5l-141 -715q109 7 223 89l55 -107q-78 -50 -148 -79t-155 -34l-43 -215h-102l43 217q-140 21 -219.5 125t-79.5 275zM315 614 q0 -117 43 -192t127 -98l142 706q-127 -23 -219.5 -138.5t-92.5 -277.5z" />
<glyph unicode="&#xa3;" d="M8 0l19 94q143 71 219 194.5t76 274.5v17h-197l22 110l166 10q-12 132 -12 187q0 206 116.5 328t301.5 122q182 0 287 -170l-107 -84q-76 125 -188 125q-115 0 -188.5 -89.5t-73.5 -241.5q0 -55 12 -177h317l-24 -120h-287q-1 -139 -45 -244t-135 -193l-2 -8h530 l-24 -135h-783z" />
<glyph unicode="&#xa5;" d="M57 330l19 86h319l25 141h-318l19 88h278l-186 662h160l84 -361q24 -122 61 -278h6q162 257 176 278l222 361h157l-442 -662h278l-20 -88h-317l-27 -141h319l-20 -86h-320l-65 -330h-156l68 330h-320z" />
<glyph unicode="&#xa8;" horiz-adv-x="1058" d="M436 1288q0 46 31 79.5t74 33.5q37 0 60.5 -23.5t23.5 -62.5q0 -45 -31.5 -77t-73.5 -32q-37 0 -60.5 22t-23.5 60zM776 1288q0 46 31 79.5t74 33.5q37 0 60.5 -23.5t23.5 -62.5q0 -45 -31.5 -77t-73.5 -32q-37 0 -60.5 22t-23.5 60z" />
<glyph unicode="&#xa9;" horiz-adv-x="1361" d="M74 545q0 120 34 236.5t99.5 216.5t154.5 176t206 119.5t247 43.5q238 0 388.5 -158t150.5 -407q0 -120 -34 -237t-100.5 -217t-155.5 -177t-206.5 -120.5t-247.5 -43.5q-237 0 -386.5 159t-149.5 409zM162 555q0 -221 122 -357.5t332 -136.5q139 0 262.5 61t207 160 t132 225t48.5 255q0 221 -122.5 357t-334.5 136q-139 0 -262 -61t-206 -159.5t-131 -224t-48 -255.5zM369 565q0 108 38.5 201t100.5 153.5t137 95t150 34.5q117 0 200 -105l-75 -70q-60 72 -140 72q-49 0 -100.5 -27.5t-94 -74t-69.5 -115.5t-27 -145q0 -108 53.5 -166 t147.5 -58q36 0 73.5 13t60 25.5t67.5 41.5l51 -80q-71 -51 -134.5 -77.5t-139.5 -26.5q-135 0 -217 81t-82 228z" />
<glyph unicode="&#xab;" horiz-adv-x="843" d="M82 461l22 127l320 303l57 -60l-291 -319l175 -330l-72 -45zM410 461l22 127l318 303l57 -60l-289 -319l174 -330l-74 -45z" />
<glyph unicode="&#xad;" horiz-adv-x="612" d="M72 455l24 120h449l-27 -120h-446z" />
<glyph unicode="&#xae;" horiz-adv-x="831" d="M150 1008q0 85 31 165.5t83.5 142.5t129.5 100t163 38q137 0 235 -98t99 -248q0 -86 -31.5 -167t-85.5 -142.5t-131 -99t-162 -37.5q-138 0 -234.5 97.5t-96.5 248.5zM225 1016q0 -124 71 -204.5t191 -80.5q136 0 232 109.5t96 259.5q0 123 -72 202.5t-192 79.5 q-137 0 -231.5 -108.5t-94.5 -257.5zM346 854l84 414h135q60 0 94.5 -31t34.5 -88q0 -46 -27 -82t-73 -51l57 -162h-82l-45 143h-69l-31 -143h-78zM467 1059h45q46 0 73 22.5t27 59.5q0 61 -67 61h-51z" />
<glyph unicode="&#xb4;" horiz-adv-x="1058" d="M539 1169l237 289h168l-278 -289h-127z" />
<glyph unicode="&#xb8;" horiz-adv-x="1058" d="M199 -365q192 32 192 123q0 34 -24 53.5t-84 34.5l110 160h107l-78 -115q92 -32 92 -116q0 -93 -87 -145.5t-220 -65.5z" />
<glyph unicode="&#xbb;" horiz-adv-x="843" d="M47 197l289 319l-174 330l74 45l210 -324l-22 -127l-320 -303zM373 197l291 319l-175 330l72 45l211 -324l-22 -127l-320 -303z" />
<glyph unicode="&#xd3;" horiz-adv-x="1296" d="M123 539q0 122 30.5 243t89 226t137 186t181.5 127.5t215 46.5q222 0 343.5 -151.5t121.5 -409.5q0 -123 -30.5 -244.5t-89 -226.5t-137 -186.5t-181.5 -128t-215 -46.5q-222 0 -343.5 152t-121.5 412zM285 551q0 -204 77.5 -321t233.5 -117q104 0 196.5 62t154 160.5 t97 219t35.5 238.5q0 205 -78 321.5t-233 116.5q-104 0 -196.5 -62t-154 -160t-97 -218.5t-35.5 -239.5zM725 1446l217 225h178l-262 -225h-133z" />
<glyph unicode="&#xf3;" horiz-adv-x="1054" d="M80 375q0 137 45.5 259t120.5 205.5t172 132t198 48.5q163 0 260 -107t97 -292q0 -137 -46 -259t-121.5 -206t-173 -132.5t-198.5 -48.5q-162 0 -258 107.5t-96 292.5zM238 385q0 -135 55 -207t158 -72q91 0 174.5 67t135.5 184.5t52 252.5t-55 208t-158 73 q-90 0 -173.5 -67.5t-136 -185.5t-52.5 -253zM539 1169l237 289h168l-278 -289h-127z" />
<glyph unicode="&#x104;" horiz-adv-x="1044" d="M-109 0l730 1343h184l156 -1343q-97 -55 -149 -119t-52 -125q0 -36 21 -57t53 -21q34 0 73 23l35 -86q-73 -47 -156 -47q-71 0 -115 37t-44 104q0 80 58.5 158.5t135.5 132.5h-26l-37 420h-475l-215 -420h-177zM346 543h399l-20 229q-36 424 -37 438h-8 q-95 -206 -215 -438z" />
<glyph unicode="&#x105;" horiz-adv-x="1099" d="M80 336q0 186 77 345t200.5 249t260.5 90q78 0 143 -42t101 -112h4l39 129h127l-198 -995q-105 -48 -165.5 -111.5t-60.5 -130.5q0 -34 21 -54.5t53 -20.5q38 0 78 24l33 -78q-83 -51 -156 -51q-70 0 -112 35.5t-42 101.5q0 85 67.5 165.5t156.5 131.5l14 138h-4 q-78 -79 -169 -127t-181 -48q-133 0 -210 94.5t-77 266.5zM242 360q0 -126 48 -190t134 -64q73 0 158 49t155 142l90 446q-80 146 -202 146q-97 0 -186 -74.5t-143 -197.5t-54 -257z" />
<glyph unicode="&#x106;" horiz-adv-x="1126" d="M117 518q0 158 51 310.5t139.5 272.5t220.5 193.5t283 73.5q110 0 193.5 -53.5t136.5 -145.5l-111 -84q-90 146 -227 146q-93 0 -176.5 -41t-145.5 -111t-108 -160t-69 -189.5t-23 -197.5q0 -193 84 -306t258 -113q141 0 284 120l72 -102q-178 -156 -385 -156 q-226 0 -351.5 148t-125.5 395zM737 1446l217 225h179l-263 -225h-133z" />
<glyph unicode="&#x107;" horiz-adv-x="890" d="M76 375q0 109 29.5 209.5t82.5 178.5t122.5 136.5t152 89.5t168.5 31q153 0 258 -121l-92 -98q-40 48 -79.5 69t-96.5 21q-98 0 -187 -69t-143.5 -186.5t-54.5 -250.5q0 -136 59 -207.5t176 -71.5q105 0 221 89l70 -103q-153 -117 -320 -117q-166 0 -266 106t-100 294z M510 1169l238 289h167l-278 -289h-127z" />
<glyph unicode="&#x118;" horiz-adv-x="1030" d="M72 0l268 1343h741l-26 -133h-584l-86 -436h494l-29 -135h-490l-104 -504h602l-29 -135q-88 -10 -158.5 -92t-70.5 -152q0 -36 21.5 -57t54.5 -21t72 23l34 -86q-73 -47 -155 -47q-71 0 -115.5 37t-44.5 104q0 81 60.5 162t131.5 129h-587z" />
<glyph unicode="&#x119;" horiz-adv-x="985" d="M76 391q0 136 46.5 255.5t122 200t170.5 127t193 46.5q108 0 178 -48.5t99.5 -127t29.5 -185.5q0 -89 -34 -194h-648q-26 -182 52 -273.5t219 -91.5q108 0 223 86l61 -104q-296 -174 -296 -324q0 -34 20.5 -54.5t52.5 -20.5q37 0 78 24l33 -78q-83 -51 -158 -51 q-68 0 -109.5 35.5t-41.5 101.5q0 78 50.5 148t112.5 121q-35 -9 -63 -9q-180 0 -285.5 109.5t-105.5 306.5zM250 571h522q10 55 10 103q0 95 -46 158t-146 63q-111 0 -206.5 -89.5t-133.5 -234.5z" />
<glyph unicode="&#x141;" horiz-adv-x="946" d="M-8 395l26 142l179 86l143 720h160l-129 -641l409 201l-26 -141l-410 -199l-86 -428h565l-26 -135h-725l96 481z" />
<glyph unicode="&#x142;" horiz-adv-x="516" d="M66 604l28 139l144 80l127 635h155l-108 -549l157 97l-24 -140l-162 -94l-117 -590q-4 -20 -4 -39q0 -37 33 -37q14 0 35 7v-121q-46 -17 -99 -17q-131 0 -131 129q0 22 11 86l98 496z" />
<glyph unicode="&#x143;" horiz-adv-x="1267" d="M72 0l268 1343h160l307 -860l86 -280h8q37 309 62 428l141 712h153l-268 -1343h-158l-303 858l-88 289h-8q-30 -257 -63 -424l-144 -723h-153zM711 1446l217 225h178l-262 -225h-133z" />
<glyph unicode="&#x144;" horiz-adv-x="1075" d="M63 0l197 995h129l-14 -149h8q97 84 179.5 129t168.5 45q236 0 236 -248q0 -59 -17 -137l-127 -635h-155l123 614q16 85 16 117q0 154 -148 154q-119 0 -299 -180l-141 -705h-156zM565 1169l238 289h168l-279 -289h-127z" />
<glyph unicode="&#x15a;" horiz-adv-x="1036" d="M25 213l116 88q128 -190 346 -190q125 0 207 70t82 184q0 69 -42.5 119.5t-125.5 101.5l-155 94q-97 59 -152 134t-55 181q0 155 119.5 264t298.5 109q116 0 215 -51.5t165 -136.5l-104 -95q-125 146 -289 146q-109 0 -176 -65t-67 -152q0 -49 25 -90.5t58.5 -67.5 t90.5 -61l155 -93q102 -60 152.5 -133.5t50.5 -181.5q0 -180 -131.5 -296t-335.5 -116q-286 0 -448 238zM608 1450l217 223h181l-265 -223h-133z" />
<glyph unicode="&#x15b;" horiz-adv-x="823" d="M-8 164l98 78q48 -67 114.5 -106.5t141.5 -39.5q86 0 148.5 49t62.5 117q0 53 -38 92t-144 97q-120 65 -174 127.5t-54 144.5q0 130 100 213.5t242 83.5q167 0 293 -133l-90 -88q-94 98 -207 98q-79 0 -133.5 -46t-54.5 -110q0 -29 12 -53t40 -46t49 -35t64 -36 q7 -4 11 -6q131 -72 182.5 -135.5t51.5 -146.5q0 -138 -105 -223t-268 -85q-98 0 -194 54.5t-148 134.5zM410 1169l237 289h168l-278 -289h-127z" />
<glyph unicode="&#x179;" horiz-adv-x="1048" d="M-2 0l20 96l871 1114h-615l29 133h805l-21 -94l-864 -1114h678l-31 -135h-872zM604 1446l219 225h178l-262 -225h-135z" />
<glyph unicode="&#x17a;" horiz-adv-x="839" d="M-20 0l16 90l661 778h-452l26 127h650l-17 -92l-661 -776h520l-25 -127h-718zM438 1169l238 289h168l-281 -289h-125z" />
<glyph unicode="&#x17b;" horiz-adv-x="1048" d="M-2 0l20 96l871 1114h-615l29 133h805l-21 -94l-864 -1114h678l-31 -135h-872zM621 1559q0 49 35 83.5t83 34.5q42 0 71.5 -25.5t29.5 -68.5q0 -50 -35.5 -83.5t-83.5 -33.5q-42 0 -71 25t-29 68z" />
<glyph unicode="&#x17c;" horiz-adv-x="839" d="M-20 0l16 90l661 778h-452l26 127h650l-17 -92l-661 -776h520l-25 -127h-718zM487 1294q0 50 35.5 84.5t83.5 34.5q42 0 71.5 -25.5t29.5 -68.5q0 -50 -35.5 -83.5t-83.5 -33.5q-42 0 -71.5 25t-29.5 67z" />
<glyph unicode="&#x2c6;" horiz-adv-x="1058" d="M422 1169l250 289h119l133 -289h-107l-98 189h-8l-170 -189h-119z" />
<glyph unicode="&#x2da;" horiz-adv-x="1058" d="M514 1272q0 87 58 148t141 61q77 0 124.5 -44t47.5 -124q0 -86 -59 -147.5t-142 -61.5q-76 0 -123 44t-47 124zM602 1278q0 -45 23 -72.5t63 -27.5q43 0 76 39t33 92q0 44 -23.5 71t-64.5 27q-43 0 -75 -38.5t-32 -90.5z" />
<glyph unicode="&#x2dc;" horiz-adv-x="1058" d="M403 1188q27 94 78.5 151.5t114.5 57.5q33 0 60 -11t45 -27.5t35 -32.5t38 -27t45 -11q48 0 90 105h90q-27 -94 -77.5 -151.5t-114.5 -57.5q-39 0 -71.5 17t-50.5 37t-44.5 37t-54.5 17q-47 0 -92 -104h-91z" />
<glyph unicode="&#x2000;" horiz-adv-x="838" />
<glyph unicode="&#x2001;" horiz-adv-x="1677" />
<glyph unicode="&#x2002;" horiz-adv-x="838" />
<glyph unicode="&#x2003;" horiz-adv-x="1677" />
<glyph unicode="&#x2004;" horiz-adv-x="559" />
<glyph unicode="&#x2005;" horiz-adv-x="419" />
<glyph unicode="&#x2006;" horiz-adv-x="279" />
<glyph unicode="&#x2007;" horiz-adv-x="279" />
<glyph unicode="&#x2008;" horiz-adv-x="209" />
<glyph unicode="&#x2009;" horiz-adv-x="335" />
<glyph unicode="&#x200a;" horiz-adv-x="93" />
<glyph unicode="&#x2010;" horiz-adv-x="612" d="M72 455l24 120h449l-27 -120h-446z" />
<glyph unicode="&#x2011;" horiz-adv-x="612" d="M72 455l24 120h449l-27 -120h-446z" />
<glyph unicode="&#x2012;" horiz-adv-x="612" d="M72 455l24 120h449l-27 -120h-446z" />
<glyph unicode="&#x2013;" horiz-adv-x="948" d="M72 461l22 110h780l-24 -110h-778z" />
<glyph unicode="&#x2014;" horiz-adv-x="1574" d="M72 461l22 110h1409l-22 -110h-1409z" />
<glyph unicode="&#x2018;" horiz-adv-x="495" d="M225 1028q0 135 74.5 235t196.5 152l32 -78q-89 -44 -140.5 -111.5t-53.5 -129.5h10q44 0 72 -24t28 -66q0 -49 -31 -83t-79 -34t-78.5 37t-30.5 102z" />
<glyph unicode="&#x2019;" horiz-adv-x="495" d="M227 983q90 45 142.5 113.5t54.5 128.5h-10q-46 0 -74.5 24.5t-28.5 67.5q0 47 32 82t81 35q48 0 78 -37.5t30 -102.5q0 -135 -75 -235t-197 -152z" />
<glyph unicode="&#x201a;" horiz-adv-x="495" d="M-18 -225q90 44 141 111t53 130h-8q-46 0 -74 23.5t-28 66.5q0 49 31 83t81 34q48 0 78.5 -37t30.5 -102q0 -135 -75.5 -235t-197.5 -152z" />
<glyph unicode="&#x201c;" horiz-adv-x="833" d="M225 1028q0 135 74.5 235t196.5 152l32 -78q-89 -44 -140.5 -111.5t-53.5 -129.5h10q44 0 72 -24t28 -66q0 -49 -31 -83t-79 -34t-78.5 37t-30.5 102zM563 1028q0 135 75.5 235t197.5 152l32 -78q-90 -44 -142 -111.5t-54 -129.5h10q45 0 73.5 -24t28.5 -66 q0 -49 -31 -83t-81 -34q-48 0 -78.5 37t-30.5 102z" />
<glyph unicode="&#x201d;" horiz-adv-x="833" d="M227 983q90 45 142.5 113.5t54.5 128.5h-10q-46 0 -74.5 24.5t-28.5 67.5q0 47 32 82t81 35q48 0 78 -37.5t30 -102.5q0 -135 -75 -235t-197 -152zM565 983q90 45 142.5 113.5t54.5 128.5h-10q-44 0 -72.5 24.5t-28.5 67.5q0 47 31.5 82t79.5 35t78 -37.5t30 -102.5 q0 -135 -74 -235t-196 -152z" />
<glyph unicode="&#x201e;" horiz-adv-x="587" d="M-18 -225q90 44 141 111t53 130h-8q-46 0 -74 23.5t-28 66.5q0 49 31 83t81 34q48 0 78.5 -37t30.5 -102q0 -135 -75.5 -235t-197.5 -152zM319 -225q90 44 142.5 111.5t54.5 129.5h-10q-45 0 -74 23.5t-29 66.5q0 49 31.5 83t81.5 34q48 0 78.5 -37t30.5 -102 q0 -135 -75 -234.5t-196 -152.5z" />
<glyph unicode="&#x2026;" horiz-adv-x="1964" d="M170 78q0 54 40 98.5t97 44.5q43 0 68.5 -29.5t25.5 -74.5q0 -55 -39 -98.5t-96 -43.5q-44 0 -70 29t-26 74zM844 78q0 55 39.5 99t97.5 44q43 0 67.5 -29t24.5 -75q0 -55 -38.5 -98.5t-94.5 -43.5q-44 0 -70 29t-26 74zM1516 78q0 54 40 98.5t97 44.5q43 0 68.5 -29.5 t25.5 -74.5q0 -55 -38.5 -98.5t-96.5 -43.5q-44 0 -70 29t-26 74z" />
<glyph unicode="&#x202f;" horiz-adv-x="335" />
<glyph unicode="&#x2039;" horiz-adv-x="516" d="M82 461l22 127l320 303l57 -60l-291 -319l175 -330l-72 -45z" />
<glyph unicode="&#x203a;" horiz-adv-x="516" d="M47 197l289 319l-174 330l74 45l210 -324l-22 -127l-320 -303z" />
<glyph unicode="&#x205f;" horiz-adv-x="419" />
<glyph unicode="&#x20ac;" d="M41 492l20 81l111 9q6 73 21 145h-105l18 82l109 6q69 235 221.5 378.5t335.5 143.5q191 0 293 -196l-119 -76q-34 70 -77.5 106.5t-110.5 36.5q-125 0 -227.5 -107.5t-157.5 -283.5h512l-19 -90h-516q-13 -59 -20 -143h430l-21 -92h-413q0 -184 68.5 -285t189.5 -101 q122 0 243 117l78 -96q-162 -152 -350 -152q-181 0 -284 134.5t-103 382.5h-127z" />
<glyph unicode="&#x2122;" horiz-adv-x="1251" d="M156 1282l22 102h510l-20 -102h-197l-106 -532h-113l106 532h-202zM655 750l127 634h140l47 -235l22 -166h8l82 166l146 235h141l-125 -634h-113l58 286l65 230h-8l-241 -418h-72l-78 418h-8l-23 -230l-59 -286h-109z" />
<glyph unicode="&#x25fc;" horiz-adv-x="993" d="M0 0v993h993v-993h-993z" />
<hkern u1="&#x2e;" u2="j" k="-6" />
<hkern u1="&#x3b;" u2="j" k="-63" />
<hkern u1="F" u2="&#x2122;" k="-88" />
<hkern u1="F" u2="&#xae;" k="-88" />
<hkern u1="F" u2="x" k="41" />
<hkern u1="F" u2="v" k="20" />
<hkern u1="F" u2="V" k="14" />
<hkern u1="F" u2="&#x2f;" k="164" />
<hkern u1="P" u2="&#xae;" k="-66" />
<hkern u1="P" u2="x" k="20" />
<hkern u1="P" u2="X" k="49" />
<hkern u1="P" u2="&#x2f;" k="193" />
<hkern u1="V" u2="&#x2122;" k="-61" />
<hkern u1="V" u2="&#xae;" k="-88" />
<hkern u1="V" u2="x" k="55" />
<hkern u1="V" u2="&#x2f;" k="123" />
<hkern u1="X" u2="&#x2122;" k="-102" />
<hkern u1="X" u2="&#xae;" k="-109" />
<hkern u1="X" u2="&#x2a;" k="6" />
<hkern u1="\" u2="v" k="41" />
<hkern u1="\" u2="V" k="123" />
<hkern u1="v" u2="&#x2122;" k="-10" />
<hkern u1="v" u2="&#xae;" k="-78" />
<hkern u1="v" u2="&#x2f;" k="41" />
<hkern u1="v" u2="&#x2a;" k="53" />
<hkern u1="x" u2="&#x2122;" k="-27" />
<hkern u1="x" u2="&#xae;" k="-78" />
<hkern u1="x" u2="V" k="20" />
<hkern u1="x" u2="&#x2a;" k="82" />
<hkern g1="exclam" 	g2="quoteright,quotedblright" 	k="72" />
<hkern g1="question" 	g2="quoteright,quotedblright" 	k="20" />
<hkern g1="slash" 	g2="j" 	k="-123" />
<hkern g1="slash" 	g2="A,Aogonek" 	k="82" />
<hkern g1="slash" 	g2="a,c,d,e,g,o,q,oacute,aogonek,cacute,eogonek" 	k="41" />
<hkern g1="slash" 	g2="J" 	k="164" />
<hkern g1="slash" 	g2="t" 	k="-41" />
<hkern g1="slash" 	g2="u" 	k="41" />
<hkern g1="A,Aogonek" 	g2="T" 	k="174" />
<hkern g1="A,Aogonek" 	g2="U" 	k="70" />
<hkern g1="A,Aogonek" 	g2="W" 	k="35" />
<hkern g1="A,Aogonek" 	g2="Y" 	k="96" />
<hkern g1="A,Aogonek" 	g2="j" 	k="20" />
<hkern g1="A,Aogonek" 	g2="w" 	k="20" />
<hkern g1="A,Aogonek" 	g2="y" 	k="29" />
<hkern g1="A,Aogonek" 	g2="quoteright,quotedblright" 	k="180" />
<hkern g1="A,Aogonek" 	g2="S,Sacute" 	k="20" />
<hkern g1="A,Aogonek" 	g2="Z,Zacute,Zdotaccent" 	k="20" />
<hkern g1="A,Aogonek" 	g2="C,G,O,Q,Oacute,Cacute" 	k="43" />
<hkern g1="A,Aogonek" 	g2="f" 	k="35" />
<hkern g1="A,Aogonek" 	g2="t" 	k="35" />
<hkern g1="A,Aogonek" 	g2="u" 	k="20" />
<hkern g1="A,Aogonek" 	g2="asterisk" 	k="246" />
<hkern g1="A,Aogonek" 	g2="backslash" 	k="82" />
<hkern g1="A,Aogonek" 	g2="question" 	k="100" />
<hkern g1="A,Aogonek" 	g2="registered" 	k="178" />
<hkern g1="A,Aogonek" 	g2="trademark" 	k="205" />
<hkern g1="A,Aogonek" 	g2="V" 	k="100" />
<hkern g1="A,Aogonek" 	g2="X" 	k="-12" />
<hkern g1="A,Aogonek" 	g2="quotedbl,quotesingle" 	k="178" />
<hkern g1="A,Aogonek" 	g2="quoteleft,quotedblleft" 	k="145" />
<hkern g1="A,Aogonek" 	g2="v" 	k="29" />
<hkern g1="B" 	g2="T" 	k="82" />
<hkern g1="B" 	g2="Y" 	k="55" />
<hkern g1="B" 	g2="w" 	k="20" />
<hkern g1="B" 	g2="y" 	k="29" />
<hkern g1="B" 	g2="S,Sacute" 	k="29" />
<hkern g1="B" 	g2="J" 	k="20" />
<hkern g1="B" 	g2="t" 	k="20" />
<hkern g1="B" 	g2="asterisk" 	k="193" />
<hkern g1="B" 	g2="trademark" 	k="61" />
<hkern g1="B" 	g2="v" 	k="29" />
<hkern g1="B" 	g2="x" 	k="20" />
<hkern g1="C,Cacute" 	g2="T" 	k="41" />
<hkern g1="C,Cacute" 	g2="U" 	k="29" />
<hkern g1="C,Cacute" 	g2="w" 	k="35" />
<hkern g1="C,Cacute" 	g2="y" 	k="35" />
<hkern g1="C,Cacute" 	g2="S,Sacute" 	k="41" />
<hkern g1="C,Cacute" 	g2="Z,Zacute,Zdotaccent" 	k="20" />
<hkern g1="C,Cacute" 	g2="C,G,O,Q,Oacute,Cacute" 	k="100" />
<hkern g1="C,Cacute" 	g2="J" 	k="20" />
<hkern g1="C,Cacute" 	g2="t" 	k="29" />
<hkern g1="C,Cacute" 	g2="u" 	k="20" />
<hkern g1="C,Cacute" 	g2="registered" 	k="-39" />
<hkern g1="C,Cacute" 	g2="trademark" 	k="-61" />
<hkern g1="C,Cacute" 	g2="v" 	k="35" />
<hkern g1="C,Cacute" 	g2="hyphen,endash,emdash" 	k="100" />
<hkern g1="C,Cacute" 	g2="guillemotleft,guilsinglleft" 	k="43" />
<hkern g1="G" 	g2="T" 	k="61" />
<hkern g1="G" 	g2="asterisk" 	k="109" />
<hkern g1="G" 	g2="registered" 	k="-10" />
<hkern g1="G" 	g2="V" 	k="20" />
<hkern g1="K" 	g2="T" 	k="35" />
<hkern g1="K" 	g2="U" 	k="29" />
<hkern g1="K" 	g2="W" 	k="20" />
<hkern g1="K" 	g2="Y" 	k="35" />
<hkern g1="K" 	g2="j" 	k="20" />
<hkern g1="K" 	g2="S,Sacute" 	k="20" />
<hkern g1="K" 	g2="C,G,O,Q,Oacute,Cacute" 	k="55" />
<hkern g1="K" 	g2="t" 	k="49" />
<hkern g1="K" 	g2="u" 	k="31" />
<hkern g1="K" 	g2="asterisk" 	k="41" />
<hkern g1="K" 	g2="trademark" 	k="-18" />
<hkern g1="K" 	g2="V" 	k="20" />
<hkern g1="K" 	g2="quotedbl,quotesingle" 	k="88" />
<hkern g1="K" 	g2="hyphen,endash,emdash" 	k="78" />
<hkern g1="K" 	g2="guillemotleft,guilsinglleft" 	k="88" />
<hkern g1="L,Lslash" 	g2="T" 	k="246" />
<hkern g1="L,Lslash" 	g2="U" 	k="84" />
<hkern g1="L,Lslash" 	g2="W" 	k="96" />
<hkern g1="L,Lslash" 	g2="Y" 	k="174" />
<hkern g1="L,Lslash" 	g2="w" 	k="127" />
<hkern g1="L,Lslash" 	g2="y" 	k="96" />
<hkern g1="L,Lslash" 	g2="quoteright,quotedblright" 	k="209" />
<hkern g1="L,Lslash" 	g2="A,Aogonek" 	k="-6" />
<hkern g1="L,Lslash" 	g2="S,Sacute" 	k="55" />
<hkern g1="L,Lslash" 	g2="C,G,O,Q,Oacute,Cacute" 	k="92" />
<hkern g1="L,Lslash" 	g2="a,c,d,e,g,o,q,oacute,aogonek,cacute,eogonek" 	k="29" />
<hkern g1="L,Lslash" 	g2="f" 	k="35" />
<hkern g1="L,Lslash" 	g2="t" 	k="45" />
<hkern g1="L,Lslash" 	g2="u" 	k="20" />
<hkern g1="L,Lslash" 	g2="asterisk" 	k="342" />
<hkern g1="L,Lslash" 	g2="backslash" 	k="205" />
<hkern g1="L,Lslash" 	g2="question" 	k="96" />
<hkern g1="L,Lslash" 	g2="registered" 	k="236" />
<hkern g1="L,Lslash" 	g2="trademark" 	k="276" />
<hkern g1="L,Lslash" 	g2="V" 	k="190" />
<hkern g1="L,Lslash" 	g2="quotedbl,quotesingle" 	k="291" />
<hkern g1="L,Lslash" 	g2="quoteleft,quotedblleft" 	k="209" />
<hkern g1="L,Lslash" 	g2="v" 	k="182" />
<hkern g1="L,Lslash" 	g2="hyphen,endash,emdash" 	k="164" />
<hkern g1="L,Lslash" 	g2="guillemotleft,guilsinglleft" 	k="82" />
<hkern g1="D,O,Q,Oacute" 	g2="T" 	k="70" />
<hkern g1="D,O,Q,Oacute" 	g2="Y" 	k="49" />
<hkern g1="D,O,Q,Oacute" 	g2="Z,Zacute,Zdotaccent" 	k="20" />
<hkern g1="D,O,Q,Oacute" 	g2="J" 	k="41" />
<hkern g1="D,O,Q,Oacute" 	g2="asterisk" 	k="150" />
<hkern g1="D,O,Q,Oacute" 	g2="registered" 	k="-6" />
<hkern g1="D,O,Q,Oacute" 	g2="trademark" 	k="49" />
<hkern g1="D,O,Q,Oacute" 	g2="slash" 	k="41" />
<hkern g1="D,O,Q,Oacute" 	g2="V" 	k="41" />
<hkern g1="R" 	g2="T" 	k="74" />
<hkern g1="R" 	g2="Y" 	k="41" />
<hkern g1="R" 	g2="A,Aogonek" 	k="20" />
<hkern g1="R" 	g2="S,Sacute" 	k="29" />
<hkern g1="R" 	g2="Z,Zacute,Zdotaccent" 	k="20" />
<hkern g1="R" 	g2="a,c,d,e,g,o,q,oacute,aogonek,cacute,eogonek" 	k="20" />
<hkern g1="R" 	g2="J" 	k="41" />
<hkern g1="R" 	g2="asterisk" 	k="29" />
<hkern g1="R" 	g2="registered" 	k="-51" />
<hkern g1="R" 	g2="V" 	k="20" />
<hkern g1="R" 	g2="X" 	k="20" />
<hkern g1="R" 	g2="x" 	k="20" />
<hkern g1="R" 	g2="hyphen,endash,emdash" 	k="82" />
<hkern g1="R" 	g2="guillemotleft,guilsinglleft" 	k="49" />
<hkern g1="R" 	g2="z,zacute,zdotaccent" 	k="20" />
<hkern g1="S,Sacute" 	g2="T" 	k="61" />
<hkern g1="S,Sacute" 	g2="S,Sacute" 	k="20" />
<hkern g1="S,Sacute" 	g2="J" 	k="20" />
<hkern g1="S,Sacute" 	g2="asterisk" 	k="61" />
<hkern g1="S,Sacute" 	g2="registered" 	k="-27" />
<hkern g1="T" 	g2="Y" 	k="20" />
<hkern g1="T" 	g2="w" 	k="82" />
<hkern g1="T" 	g2="y" 	k="82" />
<hkern g1="T" 	g2="A,Aogonek" 	k="174" />
<hkern g1="T" 	g2="S,Sacute" 	k="160" />
<hkern g1="T" 	g2="Z,Zacute,Zdotaccent" 	k="109" />
<hkern g1="T" 	g2="C,G,O,Q,Oacute,Cacute" 	k="41" />
<hkern g1="T" 	g2="a,c,d,e,g,o,q,oacute,aogonek,cacute,eogonek" 	k="164" />
<hkern g1="T" 	g2="f" 	k="68" />
<hkern g1="T" 	g2="J" 	k="258" />
<hkern g1="T" 	g2="t" 	k="41" />
<hkern g1="T" 	g2="u" 	k="205" />
<hkern g1="T" 	g2="registered" 	k="-88" />
<hkern g1="T" 	g2="trademark" 	k="-82" />
<hkern g1="T" 	g2="slash" 	k="190" />
<hkern g1="T" 	g2="X" 	k="41" />
<hkern g1="T" 	g2="v" 	k="82" />
<hkern g1="T" 	g2="x" 	k="82" />
<hkern g1="T" 	g2="hyphen,endash,emdash" 	k="205" />
<hkern g1="T" 	g2="guillemotleft,guilsinglleft" 	k="131" />
<hkern g1="T" 	g2="comma,period,ellipsis" 	k="219" />
<hkern g1="T" 	g2="m,n,p,r,nacute" 	k="164" />
<hkern g1="T" 	g2="s,sacute" 	k="123" />
<hkern g1="T" 	g2="z,zacute,zdotaccent" 	k="205" />
<hkern g1="T" 	g2="colon,semicolon" 	k="205" />
<hkern g1="T" 	g2="guillemotright,guilsinglright" 	k="137" />
<hkern g1="U" 	g2="Y" 	k="29" />
<hkern g1="U" 	g2="A,Aogonek" 	k="20" />
<hkern g1="U" 	g2="S,Sacute" 	k="20" />
<hkern g1="U" 	g2="J" 	k="152" />
<hkern g1="U" 	g2="slash" 	k="82" />
<hkern g1="U" 	g2="V" 	k="20" />
<hkern g1="U" 	g2="X" 	k="20" />
<hkern g1="U" 	g2="comma,period,ellipsis" 	k="20" />
<hkern g1="W" 	g2="A,Aogonek" 	k="35" />
<hkern g1="W" 	g2="S,Sacute" 	k="20" />
<hkern g1="W" 	g2="Z,Zacute,Zdotaccent" 	k="20" />
<hkern g1="W" 	g2="a,c,d,e,g,o,q,oacute,aogonek,cacute,eogonek" 	k="14" />
<hkern g1="W" 	g2="f" 	k="-12" />
<hkern g1="W" 	g2="J" 	k="205" />
<hkern g1="W" 	g2="registered" 	k="-80" />
<hkern g1="W" 	g2="trademark" 	k="-61" />
<hkern g1="W" 	g2="slash" 	k="82" />
<hkern g1="W" 	g2="guillemotleft,guilsinglleft" 	k="35" />
<hkern g1="W" 	g2="comma,period,ellipsis" 	k="115" />
<hkern g1="W" 	g2="z,zacute,zdotaccent" 	k="35" />
<hkern g1="W" 	g2="guillemotright,guilsinglright" 	k="35" />
<hkern g1="Y" 	g2="T" 	k="20" />
<hkern g1="Y" 	g2="w" 	k="49" />
<hkern g1="Y" 	g2="y" 	k="49" />
<hkern g1="Y" 	g2="A,Aogonek" 	k="119" />
<hkern g1="Y" 	g2="S,Sacute" 	k="20" />
<hkern g1="Y" 	g2="Z,Zacute,Zdotaccent" 	k="49" />
<hkern g1="Y" 	g2="C,G,O,Q,Oacute,Cacute" 	k="29" />
<hkern g1="Y" 	g2="a,c,d,e,g,o,q,oacute,aogonek,cacute,eogonek" 	k="84" />
<hkern g1="Y" 	g2="J" 	k="193" />
<hkern g1="Y" 	g2="u" 	k="61" />
<hkern g1="Y" 	g2="question" 	k="-27" />
<hkern g1="Y" 	g2="registered" 	k="-88" />
<hkern g1="Y" 	g2="trademark" 	k="-88" />
<hkern g1="Y" 	g2="slash" 	k="164" />
<hkern g1="Y" 	g2="v" 	k="49" />
<hkern g1="Y" 	g2="x" 	k="70" />
<hkern g1="Y" 	g2="hyphen,endash,emdash" 	k="137" />
<hkern g1="Y" 	g2="guillemotleft,guilsinglleft" 	k="152" />
<hkern g1="Y" 	g2="comma,period,ellipsis" 	k="178" />
<hkern g1="Y" 	g2="m,n,p,r,nacute" 	k="70" />
<hkern g1="Y" 	g2="s,sacute" 	k="127" />
<hkern g1="Y" 	g2="z,zacute,zdotaccent" 	k="131" />
<hkern g1="Y" 	g2="colon,semicolon" 	k="29" />
<hkern g1="Y" 	g2="guillemotright,guilsinglright" 	k="98" />
<hkern g1="Z,Zacute,Zdotaccent" 	g2="U" 	k="20" />
<hkern g1="Z,Zacute,Zdotaccent" 	g2="W" 	k="20" />
<hkern g1="Z,Zacute,Zdotaccent" 	g2="Y" 	k="29" />
<hkern g1="Z,Zacute,Zdotaccent" 	g2="w" 	k="49" />
<hkern g1="Z,Zacute,Zdotaccent" 	g2="y" 	k="49" />
<hkern g1="Z,Zacute,Zdotaccent" 	g2="A,Aogonek" 	k="41" />
<hkern g1="Z,Zacute,Zdotaccent" 	g2="S,Sacute" 	k="61" />
<hkern g1="Z,Zacute,Zdotaccent" 	g2="Z,Zacute,Zdotaccent" 	k="20" />
<hkern g1="Z,Zacute,Zdotaccent" 	g2="C,G,O,Q,Oacute,Cacute" 	k="41" />
<hkern g1="Z,Zacute,Zdotaccent" 	g2="a,c,d,e,g,o,q,oacute,aogonek,cacute,eogonek" 	k="51" />
<hkern g1="Z,Zacute,Zdotaccent" 	g2="J" 	k="61" />
<hkern g1="Z,Zacute,Zdotaccent" 	g2="t" 	k="29" />
<hkern g1="Z,Zacute,Zdotaccent" 	g2="u" 	k="72" />
<hkern g1="Z,Zacute,Zdotaccent" 	g2="registered" 	k="-47" />
<hkern g1="Z,Zacute,Zdotaccent" 	g2="trademark" 	k="-61" />
<hkern g1="Z,Zacute,Zdotaccent" 	g2="V" 	k="20" />
<hkern g1="Z,Zacute,Zdotaccent" 	g2="v" 	k="49" />
<hkern g1="Z,Zacute,Zdotaccent" 	g2="hyphen,endash,emdash" 	k="127" />
<hkern g1="Z,Zacute,Zdotaccent" 	g2="guillemotleft,guilsinglleft" 	k="104" />
<hkern g1="a,g,q,u,aogonek" 	g2="T" 	k="70" />
<hkern g1="a,g,q,u,aogonek" 	g2="Y" 	k="70" />
<hkern g1="a,g,q,u,aogonek" 	g2="asterisk" 	k="205" />
<hkern g1="a,g,q,u,aogonek" 	g2="V" 	k="20" />
<hkern g1="c,cacute" 	g2="T" 	k="70" />
<hkern g1="c,cacute" 	g2="Y" 	k="49" />
<hkern g1="c,cacute" 	g2="w" 	k="-12" />
<hkern g1="c,cacute" 	g2="y" 	k="-12" />
<hkern g1="c,cacute" 	g2="a,c,d,e,g,o,q,oacute,aogonek,cacute,eogonek" 	k="31" />
<hkern g1="c,cacute" 	g2="registered" 	k="-39" />
<hkern g1="c,cacute" 	g2="V" 	k="29" />
<hkern g1="c,cacute" 	g2="v" 	k="-12" />
<hkern g1="c,cacute" 	g2="x" 	k="-12" />
<hkern g1="c,cacute" 	g2="hyphen,endash,emdash" 	k="35" />
<hkern g1="colon,semicolon" 	g2="T" 	k="174" />
<hkern g1="colon,semicolon" 	g2="Y" 	k="70" />
<hkern g1="colon,semicolon" 	g2="j" 	k="-20" />
<hkern g1="colon,semicolon" 	g2="quoteright,quotedblright" 	k="55" />
<hkern g1="colon,semicolon" 	g2="asterisk" 	k="150" />
<hkern g1="colon,semicolon" 	g2="quoteleft,quotedblleft" 	k="55" />
<hkern g1="comma,period,ellipsis" 	g2="T" 	k="219" />
<hkern g1="comma,period,ellipsis" 	g2="U" 	k="174" />
<hkern g1="comma,period,ellipsis" 	g2="W" 	k="61" />
<hkern g1="comma,period,ellipsis" 	g2="Y" 	k="172" />
<hkern g1="comma,period,ellipsis" 	g2="j" 	k="-63" />
<hkern g1="comma,period,ellipsis" 	g2="w" 	k="39" />
<hkern g1="comma,period,ellipsis" 	g2="y" 	k="41" />
<hkern g1="comma,period,ellipsis" 	g2="quoteright,quotedblright" 	k="250" />
<hkern g1="comma,period,ellipsis" 	g2="a,c,d,e,g,o,q,oacute,aogonek,cacute,eogonek" 	k="20" />
<hkern g1="comma,period,ellipsis" 	g2="t" 	k="61" />
<hkern g1="comma,period,ellipsis" 	g2="asterisk" 	k="317" />
<hkern g1="comma,period,ellipsis" 	g2="V" 	k="172" />
<hkern g1="comma,period,ellipsis" 	g2="quotedbl,quotesingle" 	k="250" />
<hkern g1="comma,period,ellipsis" 	g2="quoteleft,quotedblleft" 	k="209" />
<hkern g1="comma,period,ellipsis" 	g2="v" 	k="72" />
<hkern g1="e,eogonek" 	g2="T" 	k="100" />
<hkern g1="e,eogonek" 	g2="W" 	k="20" />
<hkern g1="e,eogonek" 	g2="Y" 	k="55" />
<hkern g1="e,eogonek" 	g2="w" 	k="29" />
<hkern g1="e,eogonek" 	g2="y" 	k="29" />
<hkern g1="e,eogonek" 	g2="quoteright,quotedblright" 	k="66" />
<hkern g1="e,eogonek" 	g2="S,Sacute" 	k="41" />
<hkern g1="e,eogonek" 	g2="C,G,O,Q,Oacute,Cacute" 	k="29" />
<hkern g1="e,eogonek" 	g2="J" 	k="41" />
<hkern g1="e,eogonek" 	g2="t" 	k="35" />
<hkern g1="e,eogonek" 	g2="asterisk" 	k="158" />
<hkern g1="e,eogonek" 	g2="backslash" 	k="20" />
<hkern g1="e,eogonek" 	g2="registered" 	k="27" />
<hkern g1="e,eogonek" 	g2="trademark" 	k="82" />
<hkern g1="e,eogonek" 	g2="V" 	k="29" />
<hkern g1="e,eogonek" 	g2="v" 	k="29" />
<hkern g1="e,eogonek" 	g2="hyphen,endash,emdash" 	k="-27" />
<hkern g1="e,eogonek" 	g2="guillemotleft,guilsinglleft" 	k="49" />
<hkern g1="f" 	g2="T" 	k="-102" />
<hkern g1="f" 	g2="W" 	k="-102" />
<hkern g1="f" 	g2="Y" 	k="-102" />
<hkern g1="f" 	g2="quoteright,quotedblright" 	k="-68" />
<hkern g1="f" 	g2="a,c,d,e,g,o,q,oacute,aogonek,cacute,eogonek" 	k="20" />
<hkern g1="f" 	g2="backslash" 	k="-164" />
<hkern g1="f" 	g2="question" 	k="-61" />
<hkern g1="f" 	g2="registered" 	k="-154" />
<hkern g1="f" 	g2="trademark" 	k="-176" />
<hkern g1="f" 	g2="slash" 	k="41" />
<hkern g1="f" 	g2="exclam" 	k="-61" />
<hkern g1="f" 	g2="V" 	k="-102" />
<hkern g1="f" 	g2="X" 	k="-82" />
<hkern g1="f" 	g2="quotedbl,quotesingle" 	k="-82" />
<hkern g1="f" 	g2="quoteleft,quotedblleft" 	k="-68" />
<hkern g1="f" 	g2="hyphen,endash,emdash" 	k="20" />
<hkern g1="f" 	g2="comma,period,ellipsis" 	k="127" />
<hkern g1="f" 	g2="m,n,p,r,nacute" 	k="12" />
<hkern g1="f" 	g2="parenright,bracketright,braceright" 	k="-109" />
<hkern g1="k" 	g2="T" 	k="35" />
<hkern g1="k" 	g2="Y" 	k="35" />
<hkern g1="k" 	g2="j" 	k="20" />
<hkern g1="k" 	g2="quoteright,quotedblright" 	k="72" />
<hkern g1="k" 	g2="a,c,d,e,g,o,q,oacute,aogonek,cacute,eogonek" 	k="35" />
<hkern g1="k" 	g2="t" 	k="20" />
<hkern g1="k" 	g2="u" 	k="20" />
<hkern g1="k" 	g2="asterisk" 	k="123" />
<hkern g1="k" 	g2="registered" 	k="-6" />
<hkern g1="k" 	g2="trademark" 	k="41" />
<hkern g1="k" 	g2="x" 	k="-6" />
<hkern g1="k" 	g2="hyphen,endash,emdash" 	k="72" />
<hkern g1="k" 	g2="guillemotleft,guilsinglleft" 	k="55" />
<hkern g1="k" 	g2="comma,period,ellipsis" 	k="-27" />
<hkern g1="h,m,n,nacute" 	g2="T" 	k="49" />
<hkern g1="h,m,n,nacute" 	g2="Y" 	k="70" />
<hkern g1="h,m,n,nacute" 	g2="quoteright,quotedblright" 	k="123" />
<hkern g1="h,m,n,nacute" 	g2="asterisk" 	k="164" />
<hkern g1="h,m,n,nacute" 	g2="trademark" 	k="41" />
<hkern g1="h,m,n,nacute" 	g2="V" 	k="20" />
<hkern g1="b,o,p,oacute" 	g2="T" 	k="131" />
<hkern g1="b,o,p,oacute" 	g2="Y" 	k="127" />
<hkern g1="b,o,p,oacute" 	g2="w" 	k="14" />
<hkern g1="b,o,p,oacute" 	g2="y" 	k="23" />
<hkern g1="b,o,p,oacute" 	g2="quoteright,quotedblright" 	k="137" />
<hkern g1="b,o,p,oacute" 	g2="backslash" 	k="82" />
<hkern g1="b,o,p,oacute" 	g2="V" 	k="49" />
<hkern g1="b,o,p,oacute" 	g2="quoteleft,quotedblleft" 	k="82" />
<hkern g1="b,o,p,oacute" 	g2="v" 	k="23" />
<hkern g1="b,o,p,oacute" 	g2="x" 	k="35" />
<hkern g1="b,o,p,oacute" 	g2="hyphen,endash,emdash" 	k="-41" />
<hkern g1="b,o,p,oacute" 	g2="comma,period,ellipsis" 	k="20" />
<hkern g1="b,o,p,oacute" 	g2="z,zacute,zdotaccent" 	k="29" />
<hkern g1="b,o,p,oacute" 	g2="parenright,bracketright,braceright" 	k="14" />
<hkern g1="quoteleft,quotedblleft" 	g2="A,Aogonek" 	k="145" />
<hkern g1="quoteleft,quotedblleft" 	g2="a,c,d,e,g,o,q,oacute,aogonek,cacute,eogonek" 	k="82" />
<hkern g1="quoteleft,quotedblleft" 	g2="comma,period,ellipsis" 	k="168" />
<hkern g1="r" 	g2="j" 	k="12" />
<hkern g1="r" 	g2="w" 	k="-12" />
<hkern g1="r" 	g2="y" 	k="-12" />
<hkern g1="r" 	g2="quoteright,quotedblright" 	k="-27" />
<hkern g1="r" 	g2="Z,Zacute,Zdotaccent" 	k="41" />
<hkern g1="r" 	g2="a,c,d,e,g,o,q,oacute,aogonek,cacute,eogonek" 	k="20" />
<hkern g1="r" 	g2="J" 	k="174" />
<hkern g1="r" 	g2="backslash" 	k="-41" />
<hkern g1="r" 	g2="registered" 	k="-119" />
<hkern g1="r" 	g2="trademark" 	k="-27" />
<hkern g1="r" 	g2="slash" 	k="82" />
<hkern g1="r" 	g2="quoteleft,quotedblleft" 	k="-68" />
<hkern g1="r" 	g2="v" 	k="-12" />
<hkern g1="r" 	g2="hyphen,endash,emdash" 	k="41" />
<hkern g1="r" 	g2="guillemotleft,guilsinglleft" 	k="41" />
<hkern g1="r" 	g2="comma,period,ellipsis" 	k="104" />
<hkern g1="r" 	g2="s,sacute" 	k="12" />
<hkern g1="r" 	g2="z,zacute,zdotaccent" 	k="20" />
<hkern g1="s,sacute" 	g2="T" 	k="70" />
<hkern g1="s,sacute" 	g2="Y" 	k="49" />
<hkern g1="s,sacute" 	g2="y" 	k="8" />
<hkern g1="s,sacute" 	g2="asterisk" 	k="150" />
<hkern g1="s,sacute" 	g2="V" 	k="29" />
<hkern g1="s,sacute" 	g2="v" 	k="8" />
<hkern g1="s,sacute" 	g2="hyphen,endash,emdash" 	k="-6" />
<hkern g1="t" 	g2="T" 	k="41" />
<hkern g1="t" 	g2="a,c,d,e,g,o,q,oacute,aogonek,cacute,eogonek" 	k="23" />
<hkern g1="t" 	g2="u" 	k="20" />
<hkern g1="t" 	g2="registered" 	k="-92" />
<hkern g1="t" 	g2="slash" 	k="-41" />
<hkern g1="t" 	g2="hyphen,endash,emdash" 	k="55" />
<hkern g1="t" 	g2="guillemotleft,guilsinglleft" 	k="41" />
<hkern g1="t" 	g2="comma,period,ellipsis" 	k="-27" />
<hkern g1="t" 	g2="colon,semicolon" 	k="-41" />
<hkern g1="w" 	g2="T" 	k="82" />
<hkern g1="w" 	g2="Y" 	k="41" />
<hkern g1="w" 	g2="j" 	k="20" />
<hkern g1="w" 	g2="A,Aogonek" 	k="14" />
<hkern g1="w" 	g2="a,c,d,e,g,o,q,oacute,aogonek,cacute,eogonek" 	k="8" />
<hkern g1="w" 	g2="J" 	k="61" />
<hkern g1="w" 	g2="asterisk" 	k="61" />
<hkern g1="w" 	g2="registered" 	k="-104" />
<hkern g1="w" 	g2="trademark" 	k="-10" />
<hkern g1="w" 	g2="slash" 	k="20" />
<hkern g1="w" 	g2="comma,period,ellipsis" 	k="49" />
<hkern g1="w" 	g2="z,zacute,zdotaccent" 	k="29" />
<hkern g1="y" 	g2="T" 	k="82" />
<hkern g1="y" 	g2="Y" 	k="55" />
<hkern g1="y" 	g2="j" 	k="20" />
<hkern g1="y" 	g2="a,c,d,e,g,o,q,oacute,aogonek,cacute,eogonek" 	k="8" />
<hkern g1="y" 	g2="J" 	k="70" />
<hkern g1="y" 	g2="registered" 	k="-104" />
<hkern g1="y" 	g2="trademark" 	k="-27" />
<hkern g1="y" 	g2="slash" 	k="41" />
<hkern g1="y" 	g2="comma,period,ellipsis" 	k="72" />
<hkern g1="y" 	g2="z,zacute,zdotaccent" 	k="20" />
<hkern g1="z,zacute,zdotaccent" 	g2="T" 	k="61" />
<hkern g1="z,zacute,zdotaccent" 	g2="Y" 	k="49" />
<hkern g1="z,zacute,zdotaccent" 	g2="a,c,d,e,g,o,q,oacute,aogonek,cacute,eogonek" 	k="20" />
<hkern g1="z,zacute,zdotaccent" 	g2="u" 	k="41" />
<hkern g1="z,zacute,zdotaccent" 	g2="registered" 	k="-78" />
<hkern g1="z,zacute,zdotaccent" 	g2="trademark" 	k="-12" />
<hkern g1="z,zacute,zdotaccent" 	g2="V" 	k="20" />
<hkern g1="z,zacute,zdotaccent" 	g2="hyphen,endash,emdash" 	k="20" />
<hkern g1="F" 	g2="W" 	k="8" />
<hkern g1="F" 	g2="Y" 	k="14" />
<hkern g1="F" 	g2="w" 	k="20" />
<hkern g1="F" 	g2="y" 	k="20" />
<hkern g1="F" 	g2="A,Aogonek" 	k="82" />
<hkern g1="F" 	g2="S,Sacute" 	k="33" />
<hkern g1="F" 	g2="Z,Zacute,Zdotaccent" 	k="41" />
<hkern g1="F" 	g2="C,G,O,Q,Oacute,Cacute" 	k="20" />
<hkern g1="F" 	g2="a,c,d,e,g,o,q,oacute,aogonek,cacute,eogonek" 	k="20" />
<hkern g1="F" 	g2="J" 	k="287" />
<hkern g1="F" 	g2="t" 	k="20" />
<hkern g1="F" 	g2="u" 	k="31" />
<hkern g1="F" 	g2="guillemotleft,guilsinglleft" 	k="41" />
<hkern g1="F" 	g2="comma,period,ellipsis" 	k="137" />
<hkern g1="F" 	g2="m,n,p,r,nacute" 	k="41" />
<hkern g1="F" 	g2="s,sacute" 	k="31" />
<hkern g1="F" 	g2="z,zacute,zdotaccent" 	k="41" />
<hkern g1="J" 	g2="J" 	k="82" />
<hkern g1="J" 	g2="comma,period,ellipsis" 	k="41" />
<hkern g1="P" 	g2="T" 	k="61" />
<hkern g1="P" 	g2="Y" 	k="29" />
<hkern g1="P" 	g2="A,Aogonek" 	k="127" />
<hkern g1="P" 	g2="S,Sacute" 	k="20" />
<hkern g1="P" 	g2="Z,Zacute,Zdotaccent" 	k="205" />
<hkern g1="P" 	g2="a,c,d,e,g,o,q,oacute,aogonek,cacute,eogonek" 	k="41" />
<hkern g1="P" 	g2="J" 	k="279" />
<hkern g1="P" 	g2="hyphen,endash,emdash" 	k="20" />
<hkern g1="P" 	g2="guillemotleft,guilsinglleft" 	k="20" />
<hkern g1="P" 	g2="comma,period,ellipsis" 	k="250" />
<hkern g1="P" 	g2="z,zacute,zdotaccent" 	k="41" />
<hkern g1="V" 	g2="U" 	k="20" />
<hkern g1="V" 	g2="A,Aogonek" 	k="100" />
<hkern g1="V" 	g2="S,Sacute" 	k="41" />
<hkern g1="V" 	g2="Z,Zacute,Zdotaccent" 	k="41" />
<hkern g1="V" 	g2="a,c,d,e,g,o,q,oacute,aogonek,cacute,eogonek" 	k="55" />
<hkern g1="V" 	g2="J" 	k="172" />
<hkern g1="V" 	g2="u" 	k="41" />
<hkern g1="V" 	g2="hyphen,endash,emdash" 	k="100" />
<hkern g1="V" 	g2="guillemotleft,guilsinglleft" 	k="104" />
<hkern g1="V" 	g2="comma,period,ellipsis" 	k="145" />
<hkern g1="V" 	g2="m,n,p,r,nacute" 	k="41" />
<hkern g1="V" 	g2="s,sacute" 	k="41" />
<hkern g1="V" 	g2="z,zacute,zdotaccent" 	k="115" />
<hkern g1="V" 	g2="guillemotright,guilsinglright" 	k="104" />
<hkern g1="X" 	g2="T" 	k="29" />
<hkern g1="X" 	g2="A,Aogonek" 	k="-12" />
<hkern g1="X" 	g2="u" 	k="29" />
<hkern g1="X" 	g2="hyphen,endash,emdash" 	k="100" />
<hkern g1="X" 	g2="guillemotleft,guilsinglleft" 	k="82" />
<hkern g1="X" 	g2="guillemotright,guilsinglright" 	k="55" />
<hkern g1="parenleft,bracketleft,braceleft" 	g2="j" 	k="-150" />
<hkern g1="hyphen,endash,emdash" 	g2="Y" 	k="145" />
<hkern g1="hyphen,endash,emdash" 	g2="Z,Zacute,Zdotaccent" 	k="41" />
<hkern g1="hyphen,endash,emdash" 	g2="V" 	k="49" />
<hkern g1="hyphen,endash,emdash" 	g2="X" 	k="41" />
<hkern g1="hyphen,endash,emdash" 	g2="x" 	k="35" />
<hkern g1="guillemotleft,guilsinglleft" 	g2="T" 	k="197" />
<hkern g1="guillemotleft,guilsinglleft" 	g2="W" 	k="29" />
<hkern g1="guillemotleft,guilsinglleft" 	g2="Y" 	k="113" />
<hkern g1="guillemotleft,guilsinglleft" 	g2="Z,Zacute,Zdotaccent" 	k="14" />
<hkern g1="guillemotleft,guilsinglleft" 	g2="V" 	k="72" />
<hkern g1="guillemotleft,guilsinglleft" 	g2="X" 	k="14" />
<hkern g1="guillemotleft,guilsinglleft" 	g2="x" 	k="8" />
<hkern g1="guillemotright,guilsinglright" 	g2="T" 	k="190" />
<hkern g1="guillemotright,guilsinglright" 	g2="W" 	k="29" />
<hkern g1="guillemotright,guilsinglright" 	g2="Y" 	k="137" />
<hkern g1="guillemotright,guilsinglright" 	g2="S,Sacute" 	k="61" />
<hkern g1="guillemotright,guilsinglright" 	g2="Z,Zacute,Zdotaccent" 	k="41" />
<hkern g1="guillemotright,guilsinglright" 	g2="J" 	k="61" />
<hkern g1="guillemotright,guilsinglright" 	g2="V" 	k="96" />
<hkern g1="guillemotright,guilsinglright" 	g2="x" 	k="29" />
<hkern g1="quotedbl,quotesingle" 	g2="A,Aogonek" 	k="137" />
<hkern g1="quotedbl,quotesingle" 	g2="comma,period,ellipsis" 	k="209" />
<hkern g1="quotedbl,quotesingle" 	g2="s,sacute" 	k="41" />
<hkern g1="quoteright,quotedblright" 	g2="A,Aogonek" 	k="158" />
<hkern g1="quoteright,quotedblright" 	g2="a,c,d,e,g,o,q,oacute,aogonek,cacute,eogonek" 	k="49" />
<hkern g1="quoteright,quotedblright" 	g2="comma,period,ellipsis" 	k="301" />
<hkern g1="quoteright,quotedblright" 	g2="s,sacute" 	k="82" />
<hkern g1="v" 	g2="T" 	k="82" />
<hkern g1="v" 	g2="Y" 	k="41" />
<hkern g1="v" 	g2="j" 	k="20" />
<hkern g1="v" 	g2="A,Aogonek" 	k="29" />
<hkern g1="v" 	g2="a,c,d,e,g,o,q,oacute,aogonek,cacute,eogonek" 	k="8" />
<hkern g1="v" 	g2="J" 	k="70" />
<hkern g1="v" 	g2="comma,period,ellipsis" 	k="72" />
<hkern g1="v" 	g2="z,zacute,zdotaccent" 	k="29" />
<hkern g1="x" 	g2="T" 	k="127" />
<hkern g1="x" 	g2="Y" 	k="49" />
<hkern g1="x" 	g2="a,c,d,e,g,o,q,oacute,aogonek,cacute,eogonek" 	k="35" />
<hkern g1="x" 	g2="hyphen,endash,emdash" 	k="43" />
<hkern g1="x" 	g2="guillemotleft,guilsinglleft" 	k="29" />
<hkern g1="x" 	g2="guillemotright,guilsinglright" 	k="14" />
</font>
</defs></svg> 