<?xml version="1.0" standalone="no"?>
<!DOCTYPE svg PUBLIC "-//W3C//DTD SVG 1.1//EN" "http://www.w3.org/Graphics/SVG/1.1/DTD/svg11.dtd" >
<svg xmlns="http://www.w3.org/2000/svg">
<metadata></metadata>
<defs>
<font id="source_sans_probold_italic" horiz-adv-x="1042" >
<font-face units-per-em="2048" ascent="1536" descent="-512" />
<missing-glyph horiz-adv-x="405" />
<glyph horiz-adv-x="2048" />
<glyph horiz-adv-x="2048" />
<glyph unicode="&#xd;" horiz-adv-x="2048" />
<glyph unicode=" "  horiz-adv-x="405" />
<glyph unicode="&#x09;" horiz-adv-x="405" />
<glyph unicode="&#xa0;" horiz-adv-x="405" />
<glyph unicode="!" horiz-adv-x="677" d="M92 127q0 79 57.5 143t143.5 64q65 0 105 -43.5t40 -110.5q0 -80 -57 -142.5t-143 -62.5q-66 0 -106 42t-40 110zM236 463l94 651l39 258h280l-59 -258l-170 -651h-184z" />
<glyph unicode="&#x22;" horiz-adv-x="1044" d="M248 743l43 371l37 258h276l-57 -258l-117 -371h-182zM696 743l43 371l37 258h277l-58 -258l-114 -371h-185z" />
<glyph unicode="#" horiz-adv-x="1036" d="M37 385l43 182h168l74 238h-156l45 182h168l110 344h166l-110 -344h205l110 344h164l-109 -344h154l-43 -182h-168l-74 -238h156l-43 -182h-170l-123 -385h-166l123 385h-205l-123 -385h-163l123 385h-156zM414 567h204l74 238h-205z" />
<glyph unicode="$" d="M12 180l172 170q50 -66 116.5 -107.5t139.5 -41.5q84 0 131 41.5t47 113.5q0 45 -23 86t-59 74.5t-80 67t-88.5 70t-80.5 77t-59 95.5t-23 118q0 161 105.5 269.5t277.5 125.5l39 203h186l-43 -219q140 -40 248 -170l-176 -158q-41 55 -95.5 88t-111.5 33q-70 0 -112 -39 t-42 -100q0 -40 23 -77t59.5 -68t80.5 -63.5t88 -70t80.5 -79.5t59.5 -101t23 -127q0 -167 -106 -279t-285 -132l-43 -205h-185l43 215q-184 42 -307 190z" />
<glyph unicode="%" horiz-adv-x="1697" d="M109 854q0 144 48 263t138.5 191t206.5 72q122 0 202 -90t80 -237q0 -144 -48 -263t-138.5 -190.5t-206.5 -71.5q-121 0 -201.5 90.5t-80.5 235.5zM291 -25l969 1401h163l-970 -1401h-162zM307 860q0 -77 26 -120.5t77 -43.5q76 0 126 101t50 252q0 163 -101 163 q-76 0 -127 -101t-51 -251zM950 301q0 144 48 263t138.5 191t206.5 72q121 0 202 -90.5t81 -236.5q0 -144 -48 -263t-138.5 -190.5t-206.5 -71.5q-122 0 -202.5 90t-80.5 236zM1149 307q0 -164 100 -164q76 0 127 101t51 252q0 163 -102 163q-76 0 -126 -101t-50 -251z" />
<glyph unicode="&#x26;" horiz-adv-x="1296" d="M29 307q0 79 24.5 145.5t70.5 118.5t96 89.5t118 76.5q-39 119 -39 224q0 165 119 282t287 117q131 0 202.5 -72t71.5 -196q0 -59 -21 -113t-51 -93.5t-81 -82t-92.5 -70t-104.5 -65.5q79 -138 213 -262q131 149 211 346h254q-131 -282 -301 -471q95 -58 196 -84 l-110 -222q-135 29 -279 127q-181 -127 -403 -127q-178 0 -279.5 91t-101.5 241zM301 338q0 -67 43 -109.5t115 -42.5q95 0 192 54q-137 140 -223 299q-127 -99 -127 -201zM532 969q0 -51 17 -121q104 57 158.5 113t54.5 133q0 37 -19 58.5t-55 21.5q-64 0 -110 -56.5 t-46 -148.5z" />
<glyph unicode="'" horiz-adv-x="595" d="M248 743l43 371l37 258h276l-57 -258l-117 -371h-182z" />
<glyph unicode="(" horiz-adv-x="673" d="M115 268q0 233 57 445t159.5 398t264.5 390l162 -82q-418 -554 -418 -1171q0 -141 19 -289.5t55 -251.5l-178 -74q-52 143 -86.5 311t-34.5 324z" />
<glyph unicode=")" horiz-adv-x="677" d="M-68 -285q418 554 418 1172q0 141 -19 290t-55 253l179 71q123 -336 123 -633q0 -345 -119 -635.5t-365 -599.5z" />
<glyph unicode="*" horiz-adv-x="897" d="M207 1163l63 133l219 -69l66 235l145 -12l-16 -240l234 29l20 -143l-225 -78l78 -217l-134 -76l-125 193l-178 -168l-106 100l153 201z" />
<glyph unicode="+" d="M98 578v198h344v379h207v-379h344v-198h-348v-383h-205v383h-342z" />
<glyph unicode="," horiz-adv-x="595" d="M-55 -229q111 32 177.5 92.5t86.5 136.5q-69 2 -112.5 41t-43.5 104q0 77 53 133t138 56q81 0 125.5 -52.5t44.5 -146.5q0 -194 -119 -334.5t-322 -183.5z" />
<glyph unicode="-" horiz-adv-x="655" d="M68 420l43 198h479l-43 -198h-479z" />
<glyph unicode="." horiz-adv-x="595" d="M49 127q0 79 57 143t144 64q64 0 103.5 -43.5t39.5 -110.5q0 -80 -56.5 -142.5t-143.5 -62.5q-64 0 -104 42t-40 110z" />
<glyph unicode="/" horiz-adv-x="673" d="M-141 -328l762 1782h186l-766 -1782h-182z" />
<glyph unicode="0" d="M78 442q0 167 32.5 312t88 248t129 177t155 110t166.5 36q164 0 264.5 -122.5t100.5 -348.5q0 -167 -32.5 -311.5t-88 -247t-128.5 -176t-154.5 -109t-166.5 -35.5q-164 0 -265 121.5t-101 345.5zM338 414q0 -224 125 -224q73 0 141 92t111 253.5t43 347.5 q0 227 -125 227q-54 0 -108 -55.5t-95 -148t-66.5 -222.5t-25.5 -270z" />
<glyph unicode="1" d="M39 0l45 225h268l160 785h-238l35 176q196 32 332 114h209l-217 -1075h239l-45 -225h-788z" />
<glyph unicode="2" d="M-27 0l31 160q32 26 94 77q120 98 177 145.5t144 124t126.5 122t84.5 105.5t62 110.5t17 101.5q0 71 -41.5 114.5t-116.5 43.5q-51 0 -98.5 -26t-114.5 -79l-135 162q193 164 383 164q183 0 289 -96t106 -254q0 -76 -27.5 -151t-61.5 -132.5t-115.5 -144t-137 -139 t-177.5 -162.5q-7 -7 -11 -10h440l-45 -236h-873z" />
<glyph unicode="3" d="M-33 209l178 145q51 -70 122.5 -111.5t140.5 -41.5q106 0 168.5 49t62.5 133q0 91 -71 136.5t-251 45.5l39 199q351 0 351 201q0 64 -42 101.5t-116 37.5q-85 0 -207 -84l-135 180q178 125 393 125q177 0 285 -86t108 -227q0 -127 -65 -212.5t-213 -135.5v-9 q102 -39 153.5 -110.5t51.5 -163.5q0 -128 -67 -221t-180.5 -139t-258.5 -46q-127 0 -245.5 59t-201.5 175z" />
<glyph unicode="4" d="M16 315l37 197l619 788h334l-154 -768h149l-40 -217h-150l-63 -315h-256l63 315h-539zM330 532h266l47 234q9 48 34 146t34 143h-9q-15 -24 -67.5 -109.5t-81.5 -128.5z" />
<glyph unicode="5" d="M-14 209l176 143q112 -151 256 -151q98 0 166.5 67t68.5 178q0 89 -46.5 135t-131.5 46q-51 0 -87.5 -11.5t-102.5 -48.5l-105 86l160 647h700l-47 -235h-456l-72 -256q61 27 125 27q154 0 250 -89.5t96 -254.5q0 -116 -44 -215t-117.5 -164t-167.5 -101.5t-195 -36.5 q-260 0 -426 234z" />
<glyph unicode="6" d="M102 438q0 262 84 464.5t233 312.5t337 110q194 0 321 -178l-178 -150q-66 103 -162 103q-121 0 -215.5 -106.5t-134.5 -305.5q53 57 125.5 90t130.5 33q145 0 234.5 -86.5t89.5 -253.5q0 -126 -58 -239.5t-164.5 -185t-236.5 -71.5q-185 0 -295.5 128t-110.5 335z M362 412q0 -107 44 -167.5t116 -60.5q57 0 101.5 42t65 100.5t20.5 119.5q0 82 -36.5 127t-103.5 45q-104 0 -204 -126q-3 -40 -3 -80z" />
<glyph unicode="7" d="M203 1065l47 235h862l-35 -176q-113 -104 -203 -220t-147.5 -219.5t-104.5 -230t-73 -224t-55 -230.5h-289q96 358 223 613t326 452h-551z" />
<glyph unicode="8" d="M76 315q0 128 78 222t202 143v8q-112 115 -112 264q0 168 123 270.5t299 102.5q67 0 129 -18t113 -54t81.5 -96t30.5 -137q0 -226 -234 -352v-9q73 -49 117.5 -125.5t44.5 -171.5q0 -115 -65.5 -204.5t-172 -136t-233.5 -46.5q-72 0 -141 20t-128 59.5t-95.5 107 t-36.5 153.5zM326 346q0 -76 46.5 -126t125.5 -50q81 0 137.5 50t56.5 140q0 38 -14.5 69.5t-48 61t-67 51t-91.5 54.5q-145 -101 -145 -250zM489 963q0 -70 41 -119t129 -96q121 102 121 231q0 67 -34 107t-101 40q-66 0 -111 -44t-45 -119z" />
<glyph unicode="9" d="M23 156l176 147q65 -102 161 -102q121 0 216 105.5t135 303.5q-54 -56 -127 -88.5t-129 -32.5q-145 0 -233.5 86.5t-88.5 253.5q0 126 57.5 239.5t163.5 185t236 71.5q186 0 295.5 -127.5t109.5 -335.5q0 -262 -84 -464.5t-232 -312.5t-335 -110q-111 0 -190.5 52.5 t-130.5 128.5zM389 854q0 -82 36 -127t105 -45q100 0 203 127q2 27 2 80q0 107 -44 167t-116 60q-57 0 -101 -42t-64.5 -100.5t-20.5 -119.5z" />
<glyph unicode=":" horiz-adv-x="595" d="M49 127q0 79 57 143t144 64q64 0 103.5 -43.5t39.5 -110.5q0 -80 -56.5 -142.5t-143.5 -62.5q-64 0 -104 42t-40 110zM164 811q0 79 57.5 143t143.5 64q65 0 105 -44t40 -110q0 -80 -57 -142.5t-144 -62.5q-64 0 -104.5 42t-40.5 110z" />
<glyph unicode=";" horiz-adv-x="595" d="M-55 -229q111 32 177.5 92.5t86.5 136.5q-69 2 -112.5 41t-43.5 104q0 77 53 133t138 56q81 0 125.5 -52.5t44.5 -146.5q0 -194 -119 -334.5t-322 -183.5zM164 811q0 79 57.5 143t143.5 64q65 0 105 -44t40 -110q0 -80 -57 -142.5t-144 -62.5q-64 0 -104.5 42t-40.5 110z " />
<glyph unicode="&#x3c;" d="M94 580v196l899 357v-230l-348 -125l-264 -94v-8l264 -96l348 -125v-234z" />
<glyph unicode="=" d="M98 338v199h895v-199h-895zM98 815v199h895v-199h-895z" />
<glyph unicode="&#x3e;" d="M98 221v234l351 125l262 96v8l-262 94l-351 125v230l899 -357v-196z" />
<glyph unicode="?" horiz-adv-x="909" d="M184 127q0 79 57.5 143t143.5 64q65 0 104 -43.5t39 -110.5q0 -80 -56 -142.5t-142 -62.5q-66 0 -106 42t-40 110zM231 1251q149 146 334 146q168 0 269.5 -83t101.5 -227q0 -65 -20 -120.5t-52 -96t-72 -77.5t-81 -73t-76.5 -73t-62.5 -86.5t-35 -105.5l-238 20 q7 66 30.5 124t56 99t70 77t74 67t66 61t48 66t18.5 75q0 59 -35.5 93t-96.5 34q-78 0 -157 -79z" />
<glyph unicode="@" horiz-adv-x="1773" d="M88 332q0 143 35.5 278.5t98 248t151 207.5t192 160t223 101.5t242.5 36.5q155 0 283 -49t212 -134.5t129.5 -200.5t45.5 -247q0 -158 -39.5 -284.5t-107.5 -205.5t-155.5 -121t-187.5 -42q-74 0 -129 40t-73 113h-9q-38 -59 -102 -96t-127 -37q-110 0 -183 81.5 t-73 213.5q0 127 56 243.5t153 189.5t207 73q93 0 143 -100h4l31 84h170l-104 -455q-41 -176 88 -176q43 0 87.5 29.5t83 83.5t63 143t24.5 195q0 79 -16.5 149.5t-55.5 134.5t-97.5 109.5t-147 72.5t-199.5 27q-102 0 -207 -40.5t-196.5 -117t-163.5 -177.5t-114 -230.5 t-42 -267.5q0 -132 44.5 -237.5t118.5 -170.5t165.5 -99t191.5 -34q58 0 124.5 19t118.5 51l74 -152q-175 -90 -342 -90q-140 0 -263 43.5t-218.5 126t-151 214t-55.5 296.5zM723 412q0 -66 27 -102t77 -36q64 0 136 101l63 284q-33 64 -90 64q-58 0 -108 -50.5 t-77.5 -121.5t-27.5 -139z" />
<glyph unicode="A" horiz-adv-x="1122" d="M-127 0l705 1335h335l134 -1335h-293l-17 336h-397l-158 -336h-309zM440 547h287l-8 176q-15 329 -17 397h-8q-116 -279 -172 -397z" />
<glyph unicode="B" horiz-adv-x="1236" d="M57 0l269 1335h407q208 0 328.5 -76t120.5 -229q0 -115 -79 -205.5t-210 -128.5l-4 -8q112 -27 171.5 -90t59.5 -160q0 -92 -30 -165.5t-82.5 -124t-126 -84.5t-158 -49t-180.5 -15h-486zM381 215h174q142 0 218.5 55t76.5 158q0 83 -54.5 126.5t-162.5 43.5h-174z M498 788h133q135 0 199.5 51.5t64.5 143.5q0 66 -53 101.5t-160 35.5h-119z" />
<glyph unicode="C" horiz-adv-x="1161" d="M115 535q0 227 93.5 416.5t257 299t359.5 109.5q115 0 207 -56t150 -157l-193 -148q-73 117 -178 117q-111 0 -205.5 -78.5t-148.5 -208t-54 -276.5q0 -336 279 -336q106 0 227 102l117 -180q-73 -68 -176 -116t-227 -48q-233 0 -370.5 149.5t-137.5 410.5z" />
<glyph unicode="D" horiz-adv-x="1261" d="M57 0l269 1335h292q284 0 437 -132t153 -392q0 -194 -54.5 -348t-152 -255t-231.5 -154.5t-295 -53.5h-418zM385 225h84q98 0 179 34.5t143 103t96.5 178.5t34.5 252q0 160 -82.5 238.5t-227.5 78.5h-53z" />
<glyph unicode="E" horiz-adv-x="1079" d="M57 0l269 1335h790l-45 -235h-514l-57 -291h436l-45 -236h-436l-70 -337h530l-45 -236h-813z" />
<glyph unicode="F" horiz-adv-x="1032" d="M57 0l269 1335h790l-45 -235h-514l-63 -328h434l-45 -235h-437l-106 -537h-283z" />
<glyph unicode="G" horiz-adv-x="1251" d="M115 535q0 228 94.5 417t262.5 298.5t374 109.5q251 0 373 -213l-191 -148q-77 117 -197 117q-121 0 -220 -79t-153.5 -207.5t-54.5 -276.5q0 -338 289 -338q84 0 146 45l57 262h-219l43 230h465l-123 -637q-81 -64 -189 -102t-229 -38q-248 0 -388 148t-140 412z" />
<glyph unicode="H" horiz-adv-x="1335" d="M57 0l269 1335h280l-106 -518h456l103 518h280l-266 -1335h-282l116 571h-456l-111 -571h-283z" />
<glyph unicode="I" horiz-adv-x="602" d="M57 0l269 1335h280l-266 -1335h-283z" />
<glyph unicode="J" horiz-adv-x="1005" d="M-16 178l172 170q32 -57 85 -94t119 -37q156 0 205 248l174 870h281l-184 -919q-18 -93 -55 -170.5t-94 -139.5t-140.5 -96.5t-186.5 -34.5q-117 0 -217.5 53.5t-158.5 149.5z" />
<glyph unicode="K" horiz-adv-x="1236" d="M57 0l269 1335h280l-108 -549h6l502 549h307l-486 -549l299 -786h-292l-213 610l-203 -219l-78 -391h-283z" />
<glyph unicode="L" horiz-adv-x="1024" d="M57 0l269 1335h280l-221 -1099h506l-45 -236h-789z" />
<glyph unicode="M" horiz-adv-x="1515" d="M57 0l269 1335h297l96 -616l35 -240h8l123 240l336 616h299l-269 -1335h-262l111 530q37 183 121 447h-7l-165 -307l-314 -547h-112l-99 547l-41 307h-8q-31 -342 -53 -447l-107 -530h-258z" />
<glyph unicode="N" horiz-adv-x="1316" d="M57 0l269 1335h272l217 -696l72 -293h8q3 27 12.5 139.5t19 193.5t23.5 150l103 506h266l-266 -1335h-271l-219 694l-67 297h-9q-32 -347 -59 -479l-102 -512h-269z" />
<glyph unicode="O" horiz-adv-x="1351" d="M117 541q0 172 55.5 326t148 261t216.5 169.5t258 62.5q230 0 365.5 -150.5t135.5 -414.5q0 -172 -55.5 -326t-147.5 -261.5t-216.5 -170t-258.5 -62.5q-231 0 -366 150.5t-135 415.5zM403 559q0 -161 60 -251.5t170 -90.5q70 0 138.5 44.5t121 118.5t85 178.5 t32.5 217.5q0 161 -59.5 250.5t-168.5 89.5q-70 0 -139 -44t-122 -118t-85.5 -178t-32.5 -217z" />
<glyph unicode="P" horiz-adv-x="1193" d="M57 0l269 1335h422q100 0 181 -19.5t144 -61t97 -111t34 -162.5q0 -109 -32 -196.5t-87.5 -147t-134 -99t-168.5 -57.5t-194 -18h-158l-90 -463h-283zM477 686h141q150 0 230 64.5t80 189.5q0 172 -226 172h-143z" />
<glyph unicode="Q" horiz-adv-x="1351" d="M117 541q0 172 55.5 326t148 261t216.5 169.5t258 62.5q230 0 365.5 -150.5t135.5 -414.5q0 -207 -76.5 -382.5t-205.5 -285.5t-287 -141q39 -60 114 -90.5t165 -30.5q58 0 135 18l12 -211q-84 -32 -164 -32q-417 0 -559 366q-148 53 -230.5 191.5t-82.5 343.5zM403 559 q0 -161 60 -251.5t170 -90.5q70 0 138.5 44.5t121 118.5t85 178.5t32.5 217.5q0 161 -59.5 250.5t-168.5 89.5q-70 0 -139 -44t-122 -118t-85.5 -178t-32.5 -217z" />
<glyph unicode="R" horiz-adv-x="1220" d="M57 0l269 1335h417q101 0 182.5 -19t144 -58.5t96.5 -106.5t34 -158q0 -179 -91.5 -296t-248.5 -169l207 -528h-295l-172 489h-164l-96 -489h-283zM481 713h142q146 0 223.5 64t77.5 175q0 160 -224 160h-141z" />
<glyph unicode="S" horiz-adv-x="1083" d="M10 225l201 158q55 -78 133.5 -123t163.5 -45q87 0 139.5 41.5t52.5 112.5q0 47 -32.5 78.5t-110.5 80.5q-8 4 -12 7l-127 77q-98 62 -148.5 140t-50.5 194q0 171 136.5 292.5t332.5 121.5q116 0 222 -54.5t184 -148.5l-179 -166q-118 125 -239 125q-79 0 -124.5 -41 t-45.5 -102q0 -11 2 -21t7.5 -20t10.5 -17.5t16.5 -17.5t18.5 -16t23.5 -17l25.5 -17t31 -19.5t33 -20.5l131 -80q99 -60 142.5 -132t43.5 -185q0 -186 -139.5 -310.5t-364.5 -124.5q-293 0 -477 250z" />
<glyph unicode="T" horiz-adv-x="1089" d="M172 1098l45 237h983l-47 -237h-350l-217 -1098h-281l217 1098h-350z" />
<glyph unicode="U" horiz-adv-x="1316" d="M154 440q0 63 26 215l137 680h281l-145 -731q-17 -94 -17 -155q0 -117 47 -174.5t156 -57.5q97 0 160.5 81t99.5 263l156 774h274l-155 -770q-61 -305 -194 -447.5t-349 -142.5q-477 0 -477 465z" />
<glyph unicode="V" horiz-adv-x="1134" d="M162 1335h293l34 -657q13 -316 15 -428h8q110 259 186 428l297 657h310l-691 -1335h-340z" />
<glyph unicode="W" horiz-adv-x="1626" d="M158 0l47 1335h287l-43 -641q-23 -267 -41 -428h8q25 65 85.5 209.5t88.5 218.5l274 641h238l4 -641q-2 -145 -14 -428h8q16 46 69.5 197t79.5 231l226 641h268l-518 -1335h-355l9 639q0 127 18 311h-8q-19 -52 -60.5 -156.5t-60.5 -154.5l-262 -639h-348z" />
<glyph unicode="X" horiz-adv-x="1132" d="M-74 0l496 688l-207 647h311l68 -268q6 -27 13.5 -60l17.5 -77t16 -72h8q19 33 127 211l162 266h299l-469 -659l223 -676h-311l-76 291q-33 128 -53 215h-8q-15 -26 -133 -217l-185 -289h-299z" />
<glyph unicode="Y" d="M164 1335h291l57 -321q7 -42 51 -293h8q83 157 164 297l187 317h301l-566 -852l-96 -483h-278l94 483z" />
<glyph unicode="Z" horiz-adv-x="1075" d="M-10 0l37 168l729 932h-527l47 235h863l-35 -170l-723 -929h580l-50 -236h-921z" />
<glyph unicode="[" horiz-adv-x="675" d="M-6 -311l352 1761h410l-29 -150h-203l-291 -1462h201l-31 -149h-409z" />
<glyph unicode="\" horiz-adv-x="673" d="M174 1454h180l158 -1782h-182z" />
<glyph unicode="]" horiz-adv-x="677" d="M-59 -311l30 149h199l293 1462h-199l29 150h409l-352 -1761h-409z" />
<glyph unicode="^" horiz-adv-x="1036" d="M147 563l306 809h221l305 -809h-229l-93 277l-88 276h-8l-90 -276l-94 -277h-230z" />
<glyph unicode="_" horiz-adv-x="985" d="M-96 -283l30 158h936l-32 -158h-934z" />
<glyph unicode="`" horiz-adv-x="1093" d="M455 1479h260l114 -305h-194z" />
<glyph unicode="a" horiz-adv-x="1130" d="M63 348q0 141 45.5 270.5t120.5 221t174 146t203 54.5q70 0 131 -36t90 -97h4l46 109h223l-203 -1016h-227l4 133h-6q-70 -73 -154.5 -115.5t-163.5 -42.5q-135 0 -211 97.5t-76 275.5zM354 383q0 -178 119 -178q131 0 217 149l72 361q-23 48 -60 72t-75 24 q-108 0 -190.5 -124.5t-82.5 -303.5z" />
<glyph unicode="b" horiz-adv-x="1132" d="M29 0l288 1436h281l-68 -326l-51 -190h4q146 120 295 120q136 0 211.5 -96.5t75.5 -275.5q0 -188 -77 -349t-201.5 -252.5t-262.5 -91.5q-69 0 -127.5 36.5t-87.5 97.5h-4l-45 -109h-231zM371 301q44 -96 133 -96q108 0 190 124.5t82 303.5q0 90 -31.5 134t-87.5 44 q-54 0 -110.5 -31t-97.5 -96z" />
<glyph unicode="c" horiz-adv-x="907" d="M59 393q0 174 79 322.5t217 236.5t302 88q88 0 159 -36t114 -89l-156 -165q-62 65 -135 65q-121 0 -207 -122.5t-86 -293.5q0 -94 43.5 -146t128.5 -52q77 0 162 65l117 -172q-159 -119 -340 -119q-174 0 -286 112.5t-112 305.5z" />
<glyph unicode="d" horiz-adv-x="1118" d="M63 348q0 141 45.5 270.5t120.5 221t174 146t203 54.5q68 0 122.5 -33t84.5 -89h6l25 192l61 326h281l-289 -1436h-227l4 133h-6q-70 -73 -154.5 -115.5t-163.5 -42.5q-135 0 -211 97.5t-76 275.5zM354 383q0 -178 119 -178q126 0 217 149l72 361q-23 48 -60 72t-75 24 q-108 0 -190.5 -124.5t-82.5 -303.5z" />
<glyph unicode="e" horiz-adv-x="1015" d="M59 410q0 136 50.5 256.5t131.5 200.5t181.5 126.5t202.5 46.5q88 0 153.5 -29.5t103.5 -82.5t56 -120t18 -149q0 -64 -18 -131.5t-35 -99.5h-577q-1 -10 -1 -20q1 -106 59 -162q64 -60 169 -60q83 0 188 72l99 -176q-154 -107 -365 -107q-187 0 -301.5 117.5 t-114.5 317.5zM348 600h369q10 33 10 76q0 67 -32.5 108t-104.5 41q-76 0 -143 -58.5t-99 -166.5z" />
<glyph unicode="f" horiz-adv-x="669" d="M74 0l162 797h-132l43 207l134 12l12 67q16 81 46.5 147.5t77.5 119t115.5 81.5t153.5 29q118 0 217 -55l-90 -199q-51 31 -98 31q-59 0 -93.5 -31.5t-48.5 -111.5l-14 -78h176l-43 -219h-180l-158 -797h-280z" />
<glyph unicode="g" horiz-adv-x="1118" d="M-25 -293l121 187q141 -107 262 -107q196 0 260 213l50 172h-4q-145 -139 -304 -139q-135 0 -216 90t-81 264q0 178 74.5 329.5t196.5 237.5t260 86q70 0 129 -36t88 -97h6l43 109h227l-198 -1000q-45 -223 -184 -337.5t-355 -114.5q-93 0 -191.5 37t-183.5 106zM354 424 q0 -81 30.5 -122.5t84.5 -41.5q127 0 215 133l64 322q-25 48 -60.5 72t-73.5 24q-106 0 -183 -112.5t-77 -274.5z" />
<glyph unicode="h" horiz-adv-x="1118" d="M29 0l288 1436h281l-78 -375l-45 -164h8q161 143 320 143q241 0 241 -260q0 -77 -16 -145l-127 -635h-280l120 600q2 12 7.5 34.5t7.5 36t2 25.5q0 105 -105 105q-46 0 -96 -31t-117 -100l-131 -670h-280z" />
<glyph unicode="i" horiz-adv-x="542" d="M29 0l204 1016h279l-203 -1016h-280zM274 1303q0 68 51.5 116.5t123.5 48.5q62 0 106.5 -36t44.5 -99q0 -72 -50 -119t-124 -47q-62 0 -107 36t-45 100z" />
<glyph unicode="j" horiz-adv-x="546" d="M-268 -356l84 202q47 -26 90 -26q49 0 75.5 36.5t47.5 123.5l207 1036h280l-211 -1049q-77 -368 -377 -368q-106 0 -196 45zM279 1303q0 68 50.5 116.5t123.5 48.5q61 0 106 -36t45 -99q0 -71 -50.5 -118.5t-123.5 -47.5q-63 0 -107 36t-44 100z" />
<glyph unicode="k" horiz-adv-x="1075" d="M29 0l288 1436h281l-168 -832h8l383 412h312l-416 -445l241 -571h-280l-154 410l-166 -166l-49 -244h-280z" />
<glyph unicode="l" horiz-adv-x="563" d="M76 174q0 54 14 125l227 1137h281l-231 -1149q-5 -25 -5 -39q0 -47 39 -47q19 0 37 4l-8 -207q-67 -23 -149 -23q-205 0 -205 199z" />
<glyph unicode="m" horiz-adv-x="1693" d="M29 0l200 1016h228l-4 -135h8q181 159 327 159q107 0 160.5 -45.5t75.5 -132.5q193 178 344 178q240 0 240 -260q0 -58 -17 -145l-127 -635h-280l121 600q16 82 16 96q0 105 -102 105q-74 0 -199 -131l-135 -670h-281l121 600q16 82 16 96q0 52 -25.5 78.5t-72.5 26.5 q-78 0 -203 -131l-131 -670h-280z" />
<glyph unicode="n" horiz-adv-x="1130" d="M29 0l200 1016h228l-4 -135h8q185 159 342 159q241 0 241 -260q0 -63 -16 -145l-127 -635h-280l120 600q2 12 7.5 34.5t7.5 36t2 25.5q0 105 -105 105q-46 0 -96 -31t-117 -100l-131 -670h-280z" />
<glyph unicode="o" horiz-adv-x="1091" d="M61 393q0 115 32 218t87.5 180t128 134t155.5 86t167 29q177 0 285 -114t108 -303q0 -142 -49.5 -266t-130 -206t-182 -129t-207.5 -47q-178 0 -286 114.5t-108 303.5zM344 399q0 -94 36 -146t105 -52q104 0 180 119.5t76 295.5q0 95 -36.5 147t-106.5 52 q-103 0 -178.5 -120t-75.5 -296z" />
<glyph unicode="p" horiz-adv-x="1132" d="M-47 -377l280 1393h228l2 -117h6q71 65 152 103t157 38q136 0 211.5 -96.5t75.5 -275.5q0 -188 -77 -349t-201.5 -252.5t-262.5 -91.5q-64 0 -118.5 32t-88.5 89h-4l-28 -198l-52 -275h-280zM371 299q44 -94 133 -94q108 0 190 124.5t82 303.5q0 90 -31.5 134t-87.5 44 q-54 0 -110.5 -31t-97.5 -96z" />
<glyph unicode="q" horiz-adv-x="1130" d="M63 348q0 141 45.5 270.5t120.5 221t174 146t203 54.5q70 0 131 -36t90 -97h4l46 109h223l-279 -1393h-280l57 275l76 235h-4q-70 -73 -155.5 -115.5t-164.5 -42.5q-135 0 -211 97.5t-76 275.5zM354 383q0 -178 119 -178q126 0 217 149l72 361q-23 48 -60 72t-75 24 q-108 0 -190.5 -124.5t-82.5 -303.5z" />
<glyph unicode="r" horiz-adv-x="786" d="M29 0l200 1016h228l-13 -197h9q63 100 144.5 160.5t166.5 60.5q68 0 106 -20l-92 -242q-33 17 -100 17q-138 0 -254 -207l-115 -588h-280z" />
<glyph unicode="s" horiz-adv-x="868" d="M-16 172l161 135q106 -127 220 -127q59 0 101 27.5t42 68.5q0 10 -2 18.5t-7.5 17t-10 15t-16 15.5t-19 14.5t-25 16l-27.5 16.5t-33 19t-36 20q-205 112 -205 281q0 143 114 237t279 94q186 0 334 -155l-154 -146q-88 92 -180 92q-58 0 -94.5 -28t-36.5 -68 q0 -18 8.5 -33.5t28.5 -30.5t35.5 -24.5t48 -26.5t47.5 -26q102 -56 157.5 -122t55.5 -163q0 -148 -118.5 -241t-303.5 -93q-98 0 -200.5 52.5t-163.5 144.5z" />
<glyph unicode="t" horiz-adv-x="751" d="M96 797l41 207l150 12l86 266h235l-51 -266h231l-43 -219h-237l-88 -437q-4 -25 -4 -67q0 -98 104 -98q35 0 84 22l49 -197q-119 -45 -237 -45q-147 0 -218 72.5t-71 196.5q0 43 16 129l88 424h-135z" />
<glyph unicode="u" horiz-adv-x="1116" d="M80 238q0 61 16 143l127 635h279l-119 -600q-16 -66 -16 -97q0 -104 102 -104q87 0 203 131l131 670h280l-200 -1016h-228l4 137h-8q-173 -162 -332 -162q-124 0 -181.5 66.5t-57.5 196.5z" />
<glyph unicode="v" horiz-adv-x="1021" d="M123 1016h278l35 -498q9 -116 13 -309h8q104 241 135 309l227 498h275l-519 -1016h-323z" />
<glyph unicode="w" horiz-adv-x="1531" d="M147 1016h277l2 -492q-1 -44 -3 -93.5t-5 -110.5t-4 -95h8q90 243 115 299l208 492h244l17 -492v-299h8q14 39 49 141.5t57 157.5l191 492h260l-434 -1016h-330l-8 426q1 48 2 147t2 150h-8q-14 -37 -50 -140.5t-57 -156.5l-174 -426h-317z" />
<glyph unicode="x" horiz-adv-x="1003" d="M-82 0l430 543l-176 473h283l61 -174q9 -35 27.5 -99.5t21.5 -74.5h8q75 121 105 174l104 174h299l-397 -537l188 -479h-286l-64 178q-6 20 -26.5 82t-30.5 96h-8q-49 -78 -115 -178l-123 -178h-301z" />
<glyph unicode="y" horiz-adv-x="1021" d="M-72 -356l86 200q33 -20 76 -20q55 0 107 39.5t86 107.5l24 52l-176 993h279l47 -459q14 -125 18 -305h8q19 42 65.5 149t69.5 156l213 459h273l-549 -1039q-112 -194 -221.5 -284t-259.5 -90q-28 0 -72 12t-74 29z" />
<glyph unicode="z" horiz-adv-x="907" d="M-20 0l30 158l539 639h-367l41 219h719l-31 -162l-538 -635h426l-43 -219h-776z" />
<glyph unicode="{" horiz-adv-x="671" d="M53 487l37 164q92 3 139.5 48t61.5 110q12 60 23 167t26 181q34 166 99 229.5t200 63.5h131l-33 -150h-39q-62 0 -91 -33.5t-44 -119.5q-12 -59 -29.5 -169.5t-27.5 -164.5q-24 -115 -72 -172t-131 -76v-8q58 -14 86.5 -47.5t28.5 -95.5q0 -71 -47 -256.5t-47 -241.5 q0 -43 18 -60.5t68 -17.5h34l-28 -149h-125q-106 0 -152.5 44t-46.5 134q0 87 52.5 272t52.5 228q0 115 -144 120z" />
<glyph unicode="|" horiz-adv-x="522" d="M180 -512v2048h176v-2048h-176z" />
<glyph unicode="}" horiz-adv-x="677" d="M-78 -311l33 149h39q62 0 91 34t44 120q12 59 29.5 169.5t27.5 164.5q24 115 72 171.5t131 75.5v9q-59 14 -87 47.5t-28 95.5q0 71 47.5 256t47.5 240q0 44 -18 61.5t-68 17.5h-35l28 150h127q105 0 151 -44t46 -134q0 -68 -26 -172.5t-52 -196.5t-26 -131 q0 -116 143 -121l-37 -164q-92 -3 -139.5 -47.5t-61.5 -109.5q-12 -60 -23 -168t-26 -182q-34 -165 -99 -228t-200 -63h-131z" />
<glyph unicode="~" d="M78 643q62 109 138.5 159t154.5 50q43 0 84 -16.5t73 -39.5t61.5 -46t61 -39.5t60.5 -16.5q81 0 139 115l143 -96q-119 -209 -293 -209q-52 0 -102.5 24.5t-84.5 54.5t-75.5 54.5t-77.5 24.5q-82 0 -139 -115z" />
<glyph unicode="&#xa2;" d="M147 586q0 125 45.5 234t120.5 183.5t169.5 122.5t195.5 62l39 196h155l-38 -198q115 -21 225 -144l-162 -153q-60 57 -109 72l-114 -576q89 12 164 68l86 -181q-149 -95 -295 -112l-39 -197h-156l39 199q-150 24 -238 135t-88 289zM422 629q0 -164 100 -223l109 546 q-94 -33 -151.5 -119.5t-57.5 -203.5z" />
<glyph unicode="&#xa3;" d="M-4 0l35 172q126 54 199.5 152t80.5 225h-194l37 190l147 11q-8 82 -8 114q0 140 64.5 250t173.5 168.5t243 58.5q197 0 322 -174l-181 -147q-36 49 -71.5 72.5t-83.5 23.5q-90 0 -148.5 -73.5t-58.5 -215.5q0 -23 4 -77h299l-41 -201h-250q-7 -90 -38 -162t-91 -143 l-2 -8h481l-41 -236h-878z" />
<glyph unicode="&#xa5;" d="M37 305l26 135h304l22 117h-303l27 135h243l-168 611h285l47 -289q18 -138 45 -271h6q12 21 69 120t87 151l160 289h278l-409 -611h241l-26 -135h-303l-25 -117h303l-26 -135h-304l-61 -305h-276l61 305h-303z" />
<glyph unicode="&#xa8;" horiz-adv-x="1093" d="M373 1292q0 63 44 108.5t109 45.5q52 0 86.5 -33.5t34.5 -89.5q0 -63 -44.5 -107.5t-108.5 -44.5q-53 0 -87 32t-34 89zM762 1292q0 62 44.5 108t108.5 46q53 0 87 -33.5t34 -89.5q0 -64 -44 -108t-109 -44q-53 0 -87 32t-34 89z" />
<glyph unicode="&#xa9;" horiz-adv-x="1376" d="M61 551q0 161 57 305.5t157 251.5t243.5 170t308.5 63q239 0 394 -160.5t155 -406.5q0 -161 -57 -306t-157 -252.5t-243.5 -170.5t-308.5 -63q-239 0 -394 160.5t-155 408.5zM193 563q0 -95 28 -177t80.5 -145t134.5 -99t185 -36q174 0 318 90t225 240t81 326 q0 127 -47.5 229t-146 165t-234.5 63q-174 0 -318 -90.5t-225 -240.5t-81 -325zM356 578q0 106 41 197.5t106.5 151.5t145.5 94t160 34q123 0 209 -107l-117 -114q-49 57 -117 57q-83 0 -154 -83.5t-71 -205.5q0 -83 42.5 -129.5t119.5 -46.5q40 0 71.5 13t79.5 44l78 -123 q-124 -100 -274 -100q-144 0 -232 85.5t-88 232.5z" />
<glyph unicode="&#xab;" horiz-adv-x="944" d="M82 424l37 201l313 284l86 -92l-272 -311l160 -316l-111 -71zM469 424l35 201l313 284l88 -92l-272 -311l160 -316l-113 -71z" />
<glyph unicode="&#xad;" horiz-adv-x="655" d="M68 420l43 198h479l-43 -198h-479z" />
<glyph unicode="&#xae;" horiz-adv-x="909" d="M166 1001q0 119 52.5 223.5t151.5 171t222 66.5q145 0 249 -103t107 -259q0 -118 -53.5 -223.5t-152.5 -171.5t-220 -66q-147 0 -251.5 103t-104.5 259zM270 1010q0 -118 71 -196.5t187 -78.5q135 0 225.5 105.5t90.5 251.5q0 119 -71.5 196.5t-186.5 77.5 q-135 0 -225.5 -105t-90.5 -251zM362 852l82 401h168q63 0 100.5 -31t37.5 -87q0 -42 -26.5 -77.5t-74.5 -53.5l51 -152h-110l-37 127h-53l-27 -127h-111zM514 1057h33q38 0 60 19t22 48q0 47 -56 47h-36z" />
<glyph unicode="&#xb4;" horiz-adv-x="1093" d="M510 1174l238 305h280l-305 -305h-213z" />
<glyph unicode="&#xb8;" horiz-adv-x="1093" d="M170 -338q82 8 133 34t51 68q0 27 -21 46.5t-73 33.5l111 164h164l-64 -100q92 -35 92 -121q0 -76 -55.5 -129.5t-138.5 -78t-191 -30.5z" />
<glyph unicode="&#xbb;" horiz-adv-x="944" d="M55 211l273 311l-162 316l113 71l213 -305l-37 -201l-314 -284zM440 211l273 311l-160 316l113 71l211 -305l-35 -201l-314 -284z" />
<glyph unicode="&#xd3;" horiz-adv-x="1351" d="M117 541q0 172 55.5 326t148 261t216.5 169.5t258 62.5q230 0 365.5 -150.5t135.5 -414.5q0 -172 -55.5 -326t-147.5 -261.5t-216.5 -170t-258.5 -62.5q-231 0 -366 150.5t-135 415.5zM403 559q0 -161 60 -251.5t170 -90.5q70 0 138.5 44.5t121 118.5t85 178.5 t32.5 217.5q0 161 -59.5 250.5t-168.5 89.5q-70 0 -139 -44t-122 -118t-85.5 -178t-32.5 -217zM698 1438l209 241h303l-282 -241h-230z" />
<glyph unicode="&#xf3;" horiz-adv-x="1091" d="M61 393q0 115 32 218t87.5 180t128 134t155.5 86t167 29q177 0 285 -114t108 -303q0 -142 -49.5 -266t-130 -206t-182 -129t-207.5 -47q-178 0 -286 114.5t-108 303.5zM344 399q0 -94 36 -146t105 -52q104 0 180 119.5t76 295.5q0 95 -36.5 147t-106.5 52 q-103 0 -178.5 -120t-75.5 -296zM510 1174l238 305h280l-305 -305h-213z" />
<glyph unicode="&#x104;" horiz-adv-x="1122" d="M-127 0l705 1335h335l134 -1335q-111 -43 -163.5 -98.5t-52.5 -108.5q0 -31 20.5 -48t51.5 -17q25 0 55 18l56 -137q-43 -28 -102.5 -46t-110.5 -18q-85 0 -137 42t-52 116q0 88 60 165.5t135 131.5h-53l-17 336h-397l-158 -336h-309zM440 547h287l-8 176 q-15 329 -17 397h-8q-116 -279 -172 -397z" />
<glyph unicode="&#x105;" horiz-adv-x="1130" d="M63 348q0 141 45.5 270.5t120.5 221t174 146t203 54.5q69 0 130.5 -36.5t90.5 -96.5h4l46 109h223l-203 -1016q-100 -31 -158.5 -84.5t-58.5 -116.5q0 -28 20.5 -44.5t51.5 -16.5q27 0 65 20l47 -114q-44 -32 -103.5 -53t-107.5 -21q-79 0 -127.5 39t-48.5 110 q0 47 19.5 93t52.5 83t61.5 62.5t59.5 46.5l4 129h-4q-70 -73 -155.5 -115.5t-164.5 -42.5q-135 0 -211 97.5t-76 275.5zM354 383q0 -178 119 -178q55 0 113.5 35t103.5 114l72 361q-23 48 -60 72t-75 24q-108 0 -190.5 -124.5t-82.5 -303.5z" />
<glyph unicode="&#x106;" horiz-adv-x="1161" d="M115 535q0 227 93.5 416.5t257 299t359.5 109.5q115 0 207 -56t150 -157l-193 -148q-73 117 -178 117q-111 0 -205.5 -78.5t-148.5 -208t-54 -276.5q0 -336 279 -336q106 0 227 102l117 -180q-73 -68 -176 -116t-227 -48q-233 0 -370.5 149.5t-137.5 410.5zM725 1438 l209 241h303l-283 -241h-229z" />
<glyph unicode="&#x107;" horiz-adv-x="907" d="M59 393q0 174 79 322.5t217 236.5t302 88q88 0 159 -36t114 -89l-156 -165q-62 65 -135 65q-121 0 -207 -122.5t-86 -293.5q0 -94 43.5 -146t128.5 -52q77 0 162 65l117 -172q-159 -119 -340 -119q-174 0 -286 112.5t-112 305.5zM487 1174l238 305h281l-306 -305h-213z " />
<glyph unicode="&#x118;" horiz-adv-x="1079" d="M57 0l269 1335h790l-45 -235h-514l-57 -291h436l-45 -236h-436l-70 -337h530l-45 -236q-86 -12 -146 -81t-60 -126q0 -31 20 -48t51 -17q26 0 56 18l53 -137q-43 -28 -102.5 -46t-108.5 -18q-86 0 -137.5 42t-51.5 116q0 48 21 97.5t53.5 88t63 66t57.5 45.5h-582z" />
<glyph unicode="&#x119;" horiz-adv-x="1015" d="M59 410q0 136 50.5 256.5t131.5 200.5t181.5 126.5t202.5 46.5q88 0 153.5 -29.5t103.5 -82.5t56 -120t18 -149q0 -64 -18 -131.5t-35 -99.5h-577q-6 -121 57.5 -181.5t169.5 -60.5q83 0 188 72l99 -176q-289 -143 -289 -283q0 -28 20.5 -44.5t49.5 -16.5t67 20l47 -114 q-44 -32 -103.5 -53t-109.5 -21q-78 0 -126 39t-48 110q0 37 14.5 75.5t29.5 63t44 56t36.5 38t29.5 25.5q-6 -2 -23 -2q-189 0 -304.5 117t-115.5 318zM348 600h369q10 33 10 76q0 67 -32.5 108t-104.5 41q-76 0 -143 -58.5t-99 -166.5z" />
<glyph unicode="&#x141;" horiz-adv-x="1024" d="M-14 338l47 233l155 78l138 686h280l-108 -542l381 194l-45 -233l-383 -195l-66 -323h506l-45 -236h-789l84 416z" />
<glyph unicode="&#x142;" horiz-adv-x="583" d="M31 514l49 225l133 76l125 621h280l-96 -480l146 82l-43 -223l-148 -86l-90 -442q-4 -20 -4 -39q0 -47 39 -47q19 0 37 4l-10 -207q-63 -23 -148 -23q-205 0 -205 199q0 48 15 125l57 291z" />
<glyph unicode="&#x143;" horiz-adv-x="1316" d="M57 0l269 1335h272l217 -696l72 -293h8q3 27 12.5 139.5t19 193.5t23.5 150l103 506h266l-266 -1335h-271l-219 694l-67 297h-9q-32 -347 -59 -479l-102 -512h-269zM692 1438l207 241h305l-282 -241h-230z" />
<glyph unicode="&#x144;" horiz-adv-x="1130" d="M29 0l200 1016h228l-4 -135h8q185 159 342 159q241 0 241 -260q0 -63 -16 -145l-127 -635h-280l120 600q2 12 7.5 34.5t7.5 36t2 25.5q0 105 -105 105q-46 0 -96 -31t-117 -100l-131 -670h-280zM565 1174l238 305h280l-305 -305h-213z" />
<glyph unicode="&#x15a;" horiz-adv-x="1083" d="M10 225l201 158q55 -78 133.5 -123t163.5 -45q87 0 139.5 41.5t52.5 112.5q0 47 -32.5 78.5t-110.5 80.5q-8 4 -12 7l-127 77q-98 62 -148.5 140t-50.5 194q0 171 136.5 292.5t332.5 121.5q116 0 222 -54.5t184 -148.5l-179 -166q-118 125 -239 125q-79 0 -124.5 -41 t-45.5 -102q0 -11 2 -21t7.5 -20t10.5 -17.5t16.5 -17.5t18.5 -16t23.5 -17l25.5 -17t31 -19.5t33 -20.5l131 -80q99 -60 142.5 -132t43.5 -185q0 -186 -139.5 -310.5t-364.5 -124.5q-293 0 -477 250zM580 1450l208 242h304l-283 -242h-229z" />
<glyph unicode="&#x15b;" horiz-adv-x="868" d="M-16 172l161 135q106 -127 220 -127q59 0 101 27.5t42 68.5q0 10 -2 18.5t-7.5 17t-10 15t-16 15.5t-19 14.5t-25 16l-27.5 16.5t-33 19t-36 20q-205 112 -205 281q0 143 114 237t279 94q186 0 334 -155l-154 -146q-88 92 -180 92q-58 0 -94.5 -28t-36.5 -68 q0 -18 8.5 -33.5t28.5 -30.5t35.5 -24.5t48 -26.5t47.5 -26q102 -56 157.5 -122t55.5 -163q0 -148 -118.5 -241t-303.5 -93q-98 0 -200.5 52.5t-163.5 144.5zM401 1174l238 305h281l-306 -305h-213z" />
<glyph unicode="&#x179;" horiz-adv-x="1075" d="M-10 0l37 168l729 932h-527l47 235h863l-35 -170l-723 -929h580l-50 -236h-921zM567 1438l209 241h303l-282 -241h-230z" />
<glyph unicode="&#x17a;" horiz-adv-x="907" d="M-20 0l30 158l539 639h-367l41 219h719l-31 -162l-538 -635h426l-43 -219h-776zM426 1174l238 305h280l-305 -305h-213z" />
<glyph unicode="&#x17b;" horiz-adv-x="1075" d="M-10 0l37 168l729 932h-527l47 235h863l-35 -170l-723 -929h580l-50 -236h-921zM584 1575q0 68 51 117t123 49q62 0 107.5 -36.5t45.5 -98.5q0 -71 -51 -118.5t-125 -47.5q-62 0 -106.5 35.5t-44.5 99.5z" />
<glyph unicode="&#x17c;" horiz-adv-x="907" d="M-20 0l30 158l539 639h-367l41 219h719l-31 -162l-538 -635h426l-43 -219h-776zM459 1303q0 68 50.5 116.5t123.5 48.5q61 0 106 -36t45 -99q0 -71 -50.5 -118.5t-123.5 -47.5q-63 0 -107 36t-44 100z" />
<glyph unicode="&#x2c6;" horiz-adv-x="1093" d="M381 1174l250 305h219l129 -305h-180l-76 165h-8l-140 -165h-194z" />
<glyph unicode="&#x2da;" horiz-adv-x="1093" d="M496 1300q0 97 65.5 163.5t163.5 66.5q91 0 148 -48.5t57 -133.5q0 -98 -67 -164t-165 -66q-91 0 -146.5 48t-55.5 134zM631 1307q0 -35 18.5 -57.5t52.5 -22.5q37 0 64 33t27 79q0 34 -19 58t-53 24q-37 0 -63.5 -34t-26.5 -80z" />
<glyph unicode="&#x2dc;" horiz-adv-x="1093" d="M367 1182q36 126 101 194t140 68q41 0 76.5 -14.5t56 -31.5t47.5 -31.5t54 -14.5q23 0 42.5 21t39.5 67h147q-36 -125 -101.5 -193.5t-140.5 -68.5q-41 0 -76.5 14.5t-56 31.5t-47.5 31.5t-55 14.5q-43 0 -82 -88h-145z" />
<glyph unicode="&#x2000;" horiz-adv-x="870" />
<glyph unicode="&#x2001;" horiz-adv-x="1741" />
<glyph unicode="&#x2002;" horiz-adv-x="870" />
<glyph unicode="&#x2003;" horiz-adv-x="1741" />
<glyph unicode="&#x2004;" horiz-adv-x="580" />
<glyph unicode="&#x2005;" horiz-adv-x="435" />
<glyph unicode="&#x2006;" horiz-adv-x="290" />
<glyph unicode="&#x2007;" horiz-adv-x="290" />
<glyph unicode="&#x2008;" horiz-adv-x="217" />
<glyph unicode="&#x2009;" horiz-adv-x="348" />
<glyph unicode="&#x200a;" horiz-adv-x="96" />
<glyph unicode="&#x2010;" horiz-adv-x="655" d="M68 420l43 198h479l-43 -198h-479z" />
<glyph unicode="&#x2011;" horiz-adv-x="655" d="M68 420l43 198h479l-43 -198h-479z" />
<glyph unicode="&#x2012;" horiz-adv-x="655" d="M68 420l43 198h479l-43 -198h-479z" />
<glyph unicode="&#x2013;" horiz-adv-x="950" d="M70 426l36 182h773l-37 -182h-772z" />
<glyph unicode="&#x2014;" horiz-adv-x="1579" d="M70 426l36 182h1403l-36 -182h-1403z" />
<glyph unicode="&#x2018;" horiz-adv-x="595" d="M199 924q0 175 99.5 294.5t252.5 167.5l45 -120q-104 -40 -168 -113t-66 -129h11q65 0 106 -34.5t41 -94.5q0 -69 -47.5 -118.5t-122.5 -49.5q-70 0 -110.5 52t-40.5 145z" />
<glyph unicode="&#x2019;" horiz-adv-x="595" d="M219 889q106 40 170 112t66 129h-13q-64 0 -104.5 35t-40.5 95q0 69 47 118t123 49q70 0 110.5 -52.5t40.5 -145.5q0 -174 -100.5 -295t-253.5 -168z" />
<glyph unicode="&#x201a;" horiz-adv-x="595" d="M4 -203q104 40 168 113t66 129h-11q-64 0 -105.5 35t-41.5 94q0 69 47.5 119.5t122.5 50.5q70 0 110.5 -53t40.5 -146q0 -175 -99.5 -295t-252.5 -168z" />
<glyph unicode="&#x201c;" horiz-adv-x="1044" d="M199 924q0 175 99.5 294.5t252.5 167.5l45 -120q-104 -40 -168 -113t-66 -129h11q65 0 106 -34.5t41 -94.5q0 -69 -47.5 -118.5t-122.5 -49.5q-70 0 -110.5 52t-40.5 145zM647 924q0 175 100 294.5t254 167.5l46 -120q-105 -40 -169.5 -113t-66.5 -129h12 q65 0 105.5 -34.5t40.5 -94.5q0 -69 -47.5 -118.5t-122.5 -49.5q-70 0 -111 52t-41 145z" />
<glyph unicode="&#x201d;" horiz-adv-x="1044" d="M219 889q106 40 170 112t66 129h-13q-64 0 -104.5 35t-40.5 95q0 69 47 118t123 49q70 0 110.5 -52.5t40.5 -145.5q0 -174 -100.5 -295t-253.5 -168zM670 889q105 40 168 112t65 129h-10q-65 0 -106.5 35t-41.5 95q0 69 47 118t123 49q70 0 111 -52.5t41 -145.5 q0 -173 -100 -294t-252 -169z" />
<glyph unicode="&#x201e;" horiz-adv-x="829" d="M4 -203q104 40 168 113t66 129h-11q-64 0 -105.5 35t-41.5 94q0 69 47.5 119.5t122.5 50.5q70 0 110.5 -53t40.5 -146q0 -175 -99.5 -295t-252.5 -168zM453 -203q104 40 168.5 113t66.5 129h-12q-64 0 -106 35t-42 94q0 69 48.5 119.5t123.5 50.5q68 0 109 -53t41 -146 q0 -175 -99.5 -295t-252.5 -168z" />
<glyph unicode="&#x2026;" horiz-adv-x="1998" d="M141 127q0 79 57.5 143t143.5 64q65 0 105 -43.5t40 -110.5q0 -80 -57 -142.5t-143 -62.5q-66 0 -106 42t-40 110zM797 127q0 79 57 143t143 64q65 0 104.5 -43.5t39.5 -110.5q0 -80 -56.5 -142.5t-142.5 -62.5q-66 0 -105.5 42t-39.5 110zM1450 127q0 79 57.5 143 t143.5 64q65 0 105 -43.5t40 -110.5q0 -80 -57.5 -142.5t-143.5 -62.5q-66 0 -105.5 42t-39.5 110z" />
<glyph unicode="&#x202f;" horiz-adv-x="348" />
<glyph unicode="&#x2039;" horiz-adv-x="557" d="M82 424l37 201l313 284l86 -92l-272 -311l160 -316l-111 -71z" />
<glyph unicode="&#x203a;" horiz-adv-x="557" d="M55 211l273 311l-162 316l113 71l213 -305l-37 -201l-314 -284z" />
<glyph unicode="&#x205f;" horiz-adv-x="435" />
<glyph unicode="&#x20ac;" d="M33 459l28 133l103 8q8 74 16 113h-96l29 133l104 8q78 225 239.5 356t358.5 131q107 0 180 -51.5t129 -146.5l-200 -133q-26 54 -58 80t-80 26q-95 0 -169.5 -69t-118.5 -189h428l-29 -145h-438q-13 -77 -15 -111h353l-29 -143h-326q8 -125 60.5 -191.5t144.5 -66.5 q91 0 189 98l131 -166q-180 -158 -377 -158q-195 0 -308 126t-122 358h-127z" />
<glyph unicode="&#x2122;" horiz-adv-x="1335" d="M147 1221l33 163h529l-33 -163h-170l-94 -480h-183l95 480h-177zM668 741l123 643h208l41 -192l17 -148h8l63 148l121 192h211l-125 -643h-178l43 209l82 254h-8l-211 -368h-90l-70 368h-8l-12 -254l-43 -209h-172z" />
<glyph unicode="&#x25fc;" horiz-adv-x="1013" d="M0 0v1014h1014v-1014h-1014z" />
<hkern u1="&#x2e;" u2="j" k="-6" />
<hkern u1="&#x3b;" u2="j" k="-92" />
<hkern u1="F" u2="&#x2122;" k="-70" />
<hkern u1="F" u2="&#xae;" k="-70" />
<hkern u1="F" u2="x" k="41" />
<hkern u1="F" u2="v" k="20" />
<hkern u1="F" u2="V" k="33" />
<hkern u1="F" u2="&#x2f;" k="164" />
<hkern u1="P" u2="&#xae;" k="-18" />
<hkern u1="P" u2="x" k="20" />
<hkern u1="P" u2="X" k="57" />
<hkern u1="P" u2="&#x2f;" k="201" />
<hkern u1="V" u2="&#x2122;" k="-61" />
<hkern u1="V" u2="&#xae;" k="-70" />
<hkern u1="V" u2="x" k="74" />
<hkern u1="V" u2="&#x2f;" k="123" />
<hkern u1="X" u2="&#x2122;" k="-102" />
<hkern u1="X" u2="&#xae;" k="-90" />
<hkern u1="X" u2="&#x2a;" k="-12" />
<hkern u1="\" u2="v" k="41" />
<hkern u1="\" u2="V" k="123" />
<hkern u1="v" u2="&#x2122;" k="27" />
<hkern u1="v" u2="&#xae;" k="-23" />
<hkern u1="v" u2="&#x2f;" k="41" />
<hkern u1="v" u2="&#x2a;" k="45" />
<hkern u1="x" u2="&#x2122;" k="-8" />
<hkern u1="x" u2="&#xae;" k="-23" />
<hkern u1="x" u2="V" k="20" />
<hkern u1="x" u2="&#x2a;" k="82" />
<hkern g1="exclam" 	g2="quoteright,quotedblright" 	k="109" />
<hkern g1="question" 	g2="quoteright,quotedblright" 	k="20" />
<hkern g1="slash" 	g2="j" 	k="-123" />
<hkern g1="slash" 	g2="A,Aogonek" 	k="82" />
<hkern g1="slash" 	g2="a,c,d,e,g,o,q,oacute,aogonek,cacute,eogonek" 	k="41" />
<hkern g1="slash" 	g2="J" 	k="164" />
<hkern g1="slash" 	g2="t" 	k="-41" />
<hkern g1="slash" 	g2="u" 	k="41" />
<hkern g1="A,Aogonek" 	g2="T" 	k="137" />
<hkern g1="A,Aogonek" 	g2="U" 	k="78" />
<hkern g1="A,Aogonek" 	g2="W" 	k="53" />
<hkern g1="A,Aogonek" 	g2="Y" 	k="131" />
<hkern g1="A,Aogonek" 	g2="j" 	k="20" />
<hkern g1="A,Aogonek" 	g2="w" 	k="29" />
<hkern g1="A,Aogonek" 	g2="y" 	k="37" />
<hkern g1="A,Aogonek" 	g2="quoteright,quotedblright" 	k="227" />
<hkern g1="A,Aogonek" 	g2="S,Sacute" 	k="20" />
<hkern g1="A,Aogonek" 	g2="Z,Zacute,Zdotaccent" 	k="20" />
<hkern g1="A,Aogonek" 	g2="C,G,O,Q,Oacute,Cacute" 	k="47" />
<hkern g1="A,Aogonek" 	g2="f" 	k="53" />
<hkern g1="A,Aogonek" 	g2="t" 	k="53" />
<hkern g1="A,Aogonek" 	g2="u" 	k="20" />
<hkern g1="A,Aogonek" 	g2="asterisk" 	k="246" />
<hkern g1="A,Aogonek" 	g2="backslash" 	k="82" />
<hkern g1="A,Aogonek" 	g2="question" 	k="176" />
<hkern g1="A,Aogonek" 	g2="registered" 	k="197" />
<hkern g1="A,Aogonek" 	g2="trademark" 	k="205" />
<hkern g1="A,Aogonek" 	g2="V" 	k="176" />
<hkern g1="A,Aogonek" 	g2="quotedbl,quotesingle" 	k="197" />
<hkern g1="A,Aogonek" 	g2="quoteleft,quotedblleft" 	k="174" />
<hkern g1="A,Aogonek" 	g2="v" 	k="37" />
<hkern g1="B" 	g2="T" 	k="82" />
<hkern g1="B" 	g2="Y" 	k="74" />
<hkern g1="B" 	g2="w" 	k="20" />
<hkern g1="B" 	g2="y" 	k="37" />
<hkern g1="B" 	g2="S,Sacute" 	k="37" />
<hkern g1="B" 	g2="J" 	k="20" />
<hkern g1="B" 	g2="t" 	k="20" />
<hkern g1="B" 	g2="asterisk" 	k="201" />
<hkern g1="B" 	g2="trademark" 	k="61" />
<hkern g1="B" 	g2="v" 	k="37" />
<hkern g1="B" 	g2="x" 	k="20" />
<hkern g1="C,Cacute" 	g2="T" 	k="41" />
<hkern g1="C,Cacute" 	g2="U" 	k="37" />
<hkern g1="C,Cacute" 	g2="w" 	k="53" />
<hkern g1="C,Cacute" 	g2="y" 	k="53" />
<hkern g1="C,Cacute" 	g2="S,Sacute" 	k="41" />
<hkern g1="C,Cacute" 	g2="Z,Zacute,Zdotaccent" 	k="20" />
<hkern g1="C,Cacute" 	g2="C,G,O,Q,Oacute,Cacute" 	k="176" />
<hkern g1="C,Cacute" 	g2="J" 	k="20" />
<hkern g1="C,Cacute" 	g2="t" 	k="37" />
<hkern g1="C,Cacute" 	g2="u" 	k="20" />
<hkern g1="C,Cacute" 	g2="registered" 	k="-10" />
<hkern g1="C,Cacute" 	g2="trademark" 	k="-61" />
<hkern g1="C,Cacute" 	g2="v" 	k="53" />
<hkern g1="C,Cacute" 	g2="hyphen,endash,emdash" 	k="176" />
<hkern g1="C,Cacute" 	g2="guillemotleft,guilsinglleft" 	k="72" />
<hkern g1="G" 	g2="T" 	k="61" />
<hkern g1="G" 	g2="asterisk" 	k="90" />
<hkern g1="G" 	g2="registered" 	k="27" />
<hkern g1="G" 	g2="V" 	k="20" />
<hkern g1="K" 	g2="T" 	k="53" />
<hkern g1="K" 	g2="U" 	k="37" />
<hkern g1="K" 	g2="W" 	k="20" />
<hkern g1="K" 	g2="Y" 	k="53" />
<hkern g1="K" 	g2="j" 	k="20" />
<hkern g1="K" 	g2="S,Sacute" 	k="20" />
<hkern g1="K" 	g2="C,G,O,Q,Oacute,Cacute" 	k="74" />
<hkern g1="K" 	g2="t" 	k="57" />
<hkern g1="K" 	g2="u" 	k="31" />
<hkern g1="K" 	g2="asterisk" 	k="41" />
<hkern g1="K" 	g2="registered" 	k="43" />
<hkern g1="K" 	g2="trademark" 	k="10" />
<hkern g1="K" 	g2="V" 	k="20" />
<hkern g1="K" 	g2="quotedbl,quotesingle" 	k="172" />
<hkern g1="K" 	g2="hyphen,endash,emdash" 	k="125" />
<hkern g1="K" 	g2="guillemotleft,guilsinglleft" 	k="172" />
<hkern g1="L,Lslash" 	g2="T" 	k="246" />
<hkern g1="L,Lslash" 	g2="U" 	k="113" />
<hkern g1="L,Lslash" 	g2="W" 	k="115" />
<hkern g1="L,Lslash" 	g2="Y" 	k="211" />
<hkern g1="L,Lslash" 	g2="w" 	k="182" />
<hkern g1="L,Lslash" 	g2="y" 	k="115" />
<hkern g1="L,Lslash" 	g2="quoteright,quotedblright" 	k="264" />
<hkern g1="L,Lslash" 	g2="A,Aogonek" 	k="12" />
<hkern g1="L,Lslash" 	g2="S,Sacute" 	k="74" />
<hkern g1="L,Lslash" 	g2="C,G,O,Q,Oacute,Cacute" 	k="129" />
<hkern g1="L,Lslash" 	g2="a,c,d,e,g,o,q,oacute,aogonek,cacute,eogonek" 	k="37" />
<hkern g1="L,Lslash" 	g2="f" 	k="53" />
<hkern g1="L,Lslash" 	g2="t" 	k="63" />
<hkern g1="L,Lslash" 	g2="u" 	k="20" />
<hkern g1="L,Lslash" 	g2="asterisk" 	k="360" />
<hkern g1="L,Lslash" 	g2="backslash" 	k="205" />
<hkern g1="L,Lslash" 	g2="question" 	k="115" />
<hkern g1="L,Lslash" 	g2="registered" 	k="272" />
<hkern g1="L,Lslash" 	g2="trademark" 	k="313" />
<hkern g1="L,Lslash" 	g2="V" 	k="172" />
<hkern g1="L,Lslash" 	g2="quotedbl,quotesingle" 	k="346" />
<hkern g1="L,Lslash" 	g2="quoteleft,quotedblleft" 	k="264" />
<hkern g1="L,Lslash" 	g2="v" 	k="154" />
<hkern g1="L,Lslash" 	g2="hyphen,endash,emdash" 	k="164" />
<hkern g1="L,Lslash" 	g2="guillemotleft,guilsinglleft" 	k="82" />
<hkern g1="D,O,Q,Oacute" 	g2="T" 	k="78" />
<hkern g1="D,O,Q,Oacute" 	g2="Y" 	k="57" />
<hkern g1="D,O,Q,Oacute" 	g2="Z,Zacute,Zdotaccent" 	k="20" />
<hkern g1="D,O,Q,Oacute" 	g2="J" 	k="41" />
<hkern g1="D,O,Q,Oacute" 	g2="asterisk" 	k="131" />
<hkern g1="D,O,Q,Oacute" 	g2="registered" 	k="12" />
<hkern g1="D,O,Q,Oacute" 	g2="trademark" 	k="57" />
<hkern g1="D,O,Q,Oacute" 	g2="slash" 	k="41" />
<hkern g1="D,O,Q,Oacute" 	g2="V" 	k="41" />
<hkern g1="R" 	g2="T" 	k="66" />
<hkern g1="R" 	g2="Y" 	k="41" />
<hkern g1="R" 	g2="A,Aogonek" 	k="20" />
<hkern g1="R" 	g2="S,Sacute" 	k="29" />
<hkern g1="R" 	g2="Z,Zacute,Zdotaccent" 	k="20" />
<hkern g1="R" 	g2="a,c,d,e,g,o,q,oacute,aogonek,cacute,eogonek" 	k="20" />
<hkern g1="R" 	g2="J" 	k="41" />
<hkern g1="R" 	g2="asterisk" 	k="37" />
<hkern g1="R" 	g2="registered" 	k="-14" />
<hkern g1="R" 	g2="V" 	k="20" />
<hkern g1="R" 	g2="x" 	k="20" />
<hkern g1="R" 	g2="hyphen,endash,emdash" 	k="82" />
<hkern g1="R" 	g2="guillemotleft,guilsinglleft" 	k="57" />
<hkern g1="R" 	g2="z,zacute,zdotaccent" 	k="20" />
<hkern g1="R" 	g2="X" 	k="20" />
<hkern g1="S,Sacute" 	g2="T" 	k="61" />
<hkern g1="S,Sacute" 	g2="S,Sacute" 	k="20" />
<hkern g1="S,Sacute" 	g2="J" 	k="20" />
<hkern g1="S,Sacute" 	g2="asterisk" 	k="61" />
<hkern g1="S,Sacute" 	g2="registered" 	k="-8" />
<hkern g1="T" 	g2="Y" 	k="20" />
<hkern g1="T" 	g2="w" 	k="82" />
<hkern g1="T" 	g2="y" 	k="82" />
<hkern g1="T" 	g2="A,Aogonek" 	k="137" />
<hkern g1="T" 	g2="S,Sacute" 	k="104" />
<hkern g1="T" 	g2="Z,Zacute,Zdotaccent" 	k="90" />
<hkern g1="T" 	g2="C,G,O,Q,Oacute,Cacute" 	k="41" />
<hkern g1="T" 	g2="a,c,d,e,g,o,q,oacute,aogonek,cacute,eogonek" 	k="164" />
<hkern g1="T" 	g2="f" 	k="49" />
<hkern g1="T" 	g2="J" 	k="250" />
<hkern g1="T" 	g2="t" 	k="41" />
<hkern g1="T" 	g2="u" 	k="205" />
<hkern g1="T" 	g2="registered" 	k="-70" />
<hkern g1="T" 	g2="trademark" 	k="-82" />
<hkern g1="T" 	g2="slash" 	k="172" />
<hkern g1="T" 	g2="v" 	k="82" />
<hkern g1="T" 	g2="x" 	k="82" />
<hkern g1="T" 	g2="hyphen,endash,emdash" 	k="205" />
<hkern g1="T" 	g2="guillemotleft,guilsinglleft" 	k="139" />
<hkern g1="T" 	g2="comma,period,ellipsis" 	k="238" />
<hkern g1="T" 	g2="m,n,p,r,nacute" 	k="164" />
<hkern g1="T" 	g2="s,sacute" 	k="123" />
<hkern g1="T" 	g2="z,zacute,zdotaccent" 	k="205" />
<hkern g1="T" 	g2="X" 	k="41" />
<hkern g1="T" 	g2="colon,semicolon" 	k="205" />
<hkern g1="T" 	g2="guillemotright,guilsinglright" 	k="156" />
<hkern g1="U" 	g2="Y" 	k="37" />
<hkern g1="U" 	g2="A,Aogonek" 	k="20" />
<hkern g1="U" 	g2="S,Sacute" 	k="20" />
<hkern g1="U" 	g2="J" 	k="86" />
<hkern g1="U" 	g2="slash" 	k="82" />
<hkern g1="U" 	g2="V" 	k="20" />
<hkern g1="U" 	g2="comma,period,ellipsis" 	k="20" />
<hkern g1="U" 	g2="X" 	k="20" />
<hkern g1="W" 	g2="A,Aogonek" 	k="53" />
<hkern g1="W" 	g2="S,Sacute" 	k="20" />
<hkern g1="W" 	g2="Z,Zacute,Zdotaccent" 	k="20" />
<hkern g1="W" 	g2="a,c,d,e,g,o,q,oacute,aogonek,cacute,eogonek" 	k="33" />
<hkern g1="W" 	g2="J" 	k="205" />
<hkern g1="W" 	g2="registered" 	k="-51" />
<hkern g1="W" 	g2="trademark" 	k="-61" />
<hkern g1="W" 	g2="slash" 	k="82" />
<hkern g1="W" 	g2="guillemotleft,guilsinglleft" 	k="53" />
<hkern g1="W" 	g2="comma,period,ellipsis" 	k="180" />
<hkern g1="W" 	g2="z,zacute,zdotaccent" 	k="53" />
<hkern g1="W" 	g2="guillemotright,guilsinglright" 	k="53" />
<hkern g1="Y" 	g2="T" 	k="20" />
<hkern g1="Y" 	g2="w" 	k="57" />
<hkern g1="Y" 	g2="y" 	k="57" />
<hkern g1="Y" 	g2="A,Aogonek" 	k="180" />
<hkern g1="Y" 	g2="S,Sacute" 	k="20" />
<hkern g1="Y" 	g2="Z,Zacute,Zdotaccent" 	k="57" />
<hkern g1="Y" 	g2="C,G,O,Q,Oacute,Cacute" 	k="37" />
<hkern g1="Y" 	g2="a,c,d,e,g,o,q,oacute,aogonek,cacute,eogonek" 	k="113" />
<hkern g1="Y" 	g2="J" 	k="201" />
<hkern g1="Y" 	g2="u" 	k="61" />
<hkern g1="Y" 	g2="question" 	k="-8" />
<hkern g1="Y" 	g2="registered" 	k="-70" />
<hkern g1="Y" 	g2="trademark" 	k="-70" />
<hkern g1="Y" 	g2="slash" 	k="164" />
<hkern g1="Y" 	g2="v" 	k="57" />
<hkern g1="Y" 	g2="x" 	k="78" />
<hkern g1="Y" 	g2="hyphen,endash,emdash" 	k="156" />
<hkern g1="Y" 	g2="guillemotleft,guilsinglleft" 	k="160" />
<hkern g1="Y" 	g2="comma,period,ellipsis" 	k="197" />
<hkern g1="Y" 	g2="m,n,p,r,nacute" 	k="78" />
<hkern g1="Y" 	g2="s,sacute" 	k="182" />
<hkern g1="Y" 	g2="z,zacute,zdotaccent" 	k="139" />
<hkern g1="Y" 	g2="colon,semicolon" 	k="37" />
<hkern g1="Y" 	g2="guillemotright,guilsinglright" 	k="145" />
<hkern g1="Z,Zacute,Zdotaccent" 	g2="U" 	k="20" />
<hkern g1="Z,Zacute,Zdotaccent" 	g2="W" 	k="20" />
<hkern g1="Z,Zacute,Zdotaccent" 	g2="Y" 	k="37" />
<hkern g1="Z,Zacute,Zdotaccent" 	g2="w" 	k="57" />
<hkern g1="Z,Zacute,Zdotaccent" 	g2="y" 	k="57" />
<hkern g1="Z,Zacute,Zdotaccent" 	g2="A,Aogonek" 	k="41" />
<hkern g1="Z,Zacute,Zdotaccent" 	g2="S,Sacute" 	k="61" />
<hkern g1="Z,Zacute,Zdotaccent" 	g2="Z,Zacute,Zdotaccent" 	k="20" />
<hkern g1="Z,Zacute,Zdotaccent" 	g2="C,G,O,Q,Oacute,Cacute" 	k="41" />
<hkern g1="Z,Zacute,Zdotaccent" 	g2="a,c,d,e,g,o,q,oacute,aogonek,cacute,eogonek" 	k="51" />
<hkern g1="Z,Zacute,Zdotaccent" 	g2="J" 	k="61" />
<hkern g1="Z,Zacute,Zdotaccent" 	g2="t" 	k="37" />
<hkern g1="Z,Zacute,Zdotaccent" 	g2="u" 	k="72" />
<hkern g1="Z,Zacute,Zdotaccent" 	g2="registered" 	k="-29" />
<hkern g1="Z,Zacute,Zdotaccent" 	g2="trademark" 	k="-61" />
<hkern g1="Z,Zacute,Zdotaccent" 	g2="V" 	k="20" />
<hkern g1="Z,Zacute,Zdotaccent" 	g2="v" 	k="57" />
<hkern g1="Z,Zacute,Zdotaccent" 	g2="hyphen,endash,emdash" 	k="182" />
<hkern g1="Z,Zacute,Zdotaccent" 	g2="guillemotleft,guilsinglleft" 	k="133" />
<hkern g1="a,g,q,u,aogonek" 	g2="T" 	k="78" />
<hkern g1="a,g,q,u,aogonek" 	g2="Y" 	k="78" />
<hkern g1="a,g,q,u,aogonek" 	g2="asterisk" 	k="205" />
<hkern g1="a,g,q,u,aogonek" 	g2="V" 	k="20" />
<hkern g1="c,cacute" 	g2="T" 	k="78" />
<hkern g1="c,cacute" 	g2="Y" 	k="57" />
<hkern g1="c,cacute" 	g2="a,c,d,e,g,o,q,oacute,aogonek,cacute,eogonek" 	k="31" />
<hkern g1="c,cacute" 	g2="registered" 	k="-10" />
<hkern g1="c,cacute" 	g2="V" 	k="37" />
<hkern g1="c,cacute" 	g2="hyphen,endash,emdash" 	k="53" />
<hkern g1="colon,semicolon" 	g2="T" 	k="137" />
<hkern g1="colon,semicolon" 	g2="Y" 	k="78" />
<hkern g1="colon,semicolon" 	g2="j" 	k="-20" />
<hkern g1="colon,semicolon" 	g2="quoteright,quotedblright" 	k="74" />
<hkern g1="colon,semicolon" 	g2="asterisk" 	k="131" />
<hkern g1="colon,semicolon" 	g2="quoteleft,quotedblleft" 	k="74" />
<hkern g1="comma,period,ellipsis" 	g2="T" 	k="238" />
<hkern g1="comma,period,ellipsis" 	g2="U" 	k="137" />
<hkern g1="comma,period,ellipsis" 	g2="W" 	k="61" />
<hkern g1="comma,period,ellipsis" 	g2="Y" 	k="180" />
<hkern g1="comma,period,ellipsis" 	g2="j" 	k="-92" />
<hkern g1="comma,period,ellipsis" 	g2="w" 	k="47" />
<hkern g1="comma,period,ellipsis" 	g2="y" 	k="41" />
<hkern g1="comma,period,ellipsis" 	g2="quoteright,quotedblright" 	k="305" />
<hkern g1="comma,period,ellipsis" 	g2="a,c,d,e,g,o,q,oacute,aogonek,cacute,eogonek" 	k="20" />
<hkern g1="comma,period,ellipsis" 	g2="t" 	k="61" />
<hkern g1="comma,period,ellipsis" 	g2="asterisk" 	k="354" />
<hkern g1="comma,period,ellipsis" 	g2="V" 	k="180" />
<hkern g1="comma,period,ellipsis" 	g2="quotedbl,quotesingle" 	k="305" />
<hkern g1="comma,period,ellipsis" 	g2="quoteleft,quotedblleft" 	k="264" />
<hkern g1="comma,period,ellipsis" 	g2="v" 	k="109" />
<hkern g1="e,eogonek" 	g2="T" 	k="176" />
<hkern g1="e,eogonek" 	g2="W" 	k="20" />
<hkern g1="e,eogonek" 	g2="Y" 	k="74" />
<hkern g1="e,eogonek" 	g2="w" 	k="37" />
<hkern g1="e,eogonek" 	g2="y" 	k="37" />
<hkern g1="e,eogonek" 	g2="quoteright,quotedblright" 	k="121" />
<hkern g1="e,eogonek" 	g2="S,Sacute" 	k="41" />
<hkern g1="e,eogonek" 	g2="C,G,O,Q,Oacute,Cacute" 	k="37" />
<hkern g1="e,eogonek" 	g2="J" 	k="41" />
<hkern g1="e,eogonek" 	g2="t" 	k="39" />
<hkern g1="e,eogonek" 	g2="asterisk" 	k="176" />
<hkern g1="e,eogonek" 	g2="backslash" 	k="20" />
<hkern g1="e,eogonek" 	g2="registered" 	k="111" />
<hkern g1="e,eogonek" 	g2="trademark" 	k="82" />
<hkern g1="e,eogonek" 	g2="V" 	k="37" />
<hkern g1="e,eogonek" 	g2="v" 	k="37" />
<hkern g1="e,eogonek" 	g2="hyphen,endash,emdash" 	k="-8" />
<hkern g1="e,eogonek" 	g2="guillemotleft,guilsinglleft" 	k="57" />
<hkern g1="f" 	g2="T" 	k="-102" />
<hkern g1="f" 	g2="W" 	k="-102" />
<hkern g1="f" 	g2="Y" 	k="-102" />
<hkern g1="f" 	g2="quoteright,quotedblright" 	k="-49" />
<hkern g1="f" 	g2="a,c,d,e,g,o,q,oacute,aogonek,cacute,eogonek" 	k="20" />
<hkern g1="f" 	g2="backslash" 	k="-164" />
<hkern g1="f" 	g2="question" 	k="-61" />
<hkern g1="f" 	g2="registered" 	k="-117" />
<hkern g1="f" 	g2="trademark" 	k="-168" />
<hkern g1="f" 	g2="slash" 	k="41" />
<hkern g1="f" 	g2="exclam" 	k="-61" />
<hkern g1="f" 	g2="V" 	k="-102" />
<hkern g1="f" 	g2="quotedbl,quotesingle" 	k="-82" />
<hkern g1="f" 	g2="quoteleft,quotedblleft" 	k="-49" />
<hkern g1="f" 	g2="hyphen,endash,emdash" 	k="20" />
<hkern g1="f" 	g2="comma,period,ellipsis" 	k="182" />
<hkern g1="f" 	g2="X" 	k="-82" />
<hkern g1="f" 	g2="parenright,bracketright,braceright" 	k="-90" />
<hkern g1="k" 	g2="T" 	k="53" />
<hkern g1="k" 	g2="Y" 	k="53" />
<hkern g1="k" 	g2="j" 	k="20" />
<hkern g1="k" 	g2="quoteright,quotedblright" 	k="109" />
<hkern g1="k" 	g2="a,c,d,e,g,o,q,oacute,aogonek,cacute,eogonek" 	k="53" />
<hkern g1="k" 	g2="t" 	k="20" />
<hkern g1="k" 	g2="u" 	k="20" />
<hkern g1="k" 	g2="asterisk" 	k="123" />
<hkern g1="k" 	g2="registered" 	k="12" />
<hkern g1="k" 	g2="trademark" 	k="41" />
<hkern g1="k" 	g2="x" 	k="12" />
<hkern g1="k" 	g2="hyphen,endash,emdash" 	k="109" />
<hkern g1="k" 	g2="guillemotleft,guilsinglleft" 	k="74" />
<hkern g1="k" 	g2="comma,period,ellipsis" 	k="-8" />
<hkern g1="h,m,n,nacute" 	g2="T" 	k="57" />
<hkern g1="h,m,n,nacute" 	g2="Y" 	k="78" />
<hkern g1="h,m,n,nacute" 	g2="quoteright,quotedblright" 	k="123" />
<hkern g1="h,m,n,nacute" 	g2="asterisk" 	k="164" />
<hkern g1="h,m,n,nacute" 	g2="trademark" 	k="41" />
<hkern g1="h,m,n,nacute" 	g2="V" 	k="20" />
<hkern g1="b,o,p,oacute" 	g2="T" 	k="139" />
<hkern g1="b,o,p,oacute" 	g2="Y" 	k="182" />
<hkern g1="b,o,p,oacute" 	g2="w" 	k="33" />
<hkern g1="b,o,p,oacute" 	g2="y" 	k="51" />
<hkern g1="b,o,p,oacute" 	g2="quoteright,quotedblright" 	k="156" />
<hkern g1="b,o,p,oacute" 	g2="backslash" 	k="82" />
<hkern g1="b,o,p,oacute" 	g2="V" 	k="57" />
<hkern g1="b,o,p,oacute" 	g2="quoteleft,quotedblleft" 	k="82" />
<hkern g1="b,o,p,oacute" 	g2="v" 	k="51" />
<hkern g1="b,o,p,oacute" 	g2="x" 	k="53" />
<hkern g1="b,o,p,oacute" 	g2="hyphen,endash,emdash" 	k="-41" />
<hkern g1="b,o,p,oacute" 	g2="comma,period,ellipsis" 	k="20" />
<hkern g1="b,o,p,oacute" 	g2="z,zacute,zdotaccent" 	k="37" />
<hkern g1="b,o,p,oacute" 	g2="parenright,bracketright,braceright" 	k="33" />
<hkern g1="quoteleft,quotedblleft" 	g2="A,Aogonek" 	k="174" />
<hkern g1="quoteleft,quotedblleft" 	g2="a,c,d,e,g,o,q,oacute,aogonek,cacute,eogonek" 	k="82" />
<hkern g1="quoteleft,quotedblleft" 	g2="comma,period,ellipsis" 	k="223" />
<hkern g1="r" 	g2="quoteright,quotedblright" 	k="-8" />
<hkern g1="r" 	g2="Z,Zacute,Zdotaccent" 	k="41" />
<hkern g1="r" 	g2="a,c,d,e,g,o,q,oacute,aogonek,cacute,eogonek" 	k="20" />
<hkern g1="r" 	g2="J" 	k="137" />
<hkern g1="r" 	g2="backslash" 	k="-41" />
<hkern g1="r" 	g2="registered" 	k="-63" />
<hkern g1="r" 	g2="trademark" 	k="-8" />
<hkern g1="r" 	g2="slash" 	k="82" />
<hkern g1="r" 	g2="quoteleft,quotedblleft" 	k="-49" />
<hkern g1="r" 	g2="hyphen,endash,emdash" 	k="41" />
<hkern g1="r" 	g2="guillemotleft,guilsinglleft" 	k="41" />
<hkern g1="r" 	g2="comma,period,ellipsis" 	k="133" />
<hkern g1="r" 	g2="z,zacute,zdotaccent" 	k="20" />
<hkern g1="s,sacute" 	g2="T" 	k="78" />
<hkern g1="s,sacute" 	g2="Y" 	k="57" />
<hkern g1="s,sacute" 	g2="y" 	k="16" />
<hkern g1="s,sacute" 	g2="asterisk" 	k="131" />
<hkern g1="s,sacute" 	g2="V" 	k="37" />
<hkern g1="s,sacute" 	g2="v" 	k="16" />
<hkern g1="s,sacute" 	g2="hyphen,endash,emdash" 	k="12" />
<hkern g1="t" 	g2="T" 	k="41" />
<hkern g1="t" 	g2="a,c,d,e,g,o,q,oacute,aogonek,cacute,eogonek" 	k="27" />
<hkern g1="t" 	g2="u" 	k="20" />
<hkern g1="t" 	g2="registered" 	k="-55" />
<hkern g1="t" 	g2="slash" 	k="-41" />
<hkern g1="t" 	g2="hyphen,endash,emdash" 	k="74" />
<hkern g1="t" 	g2="guillemotleft,guilsinglleft" 	k="41" />
<hkern g1="t" 	g2="comma,period,ellipsis" 	k="-8" />
<hkern g1="t" 	g2="colon,semicolon" 	k="-41" />
<hkern g1="w" 	g2="T" 	k="82" />
<hkern g1="w" 	g2="Y" 	k="41" />
<hkern g1="w" 	g2="j" 	k="20" />
<hkern g1="w" 	g2="A,Aogonek" 	k="18" />
<hkern g1="w" 	g2="a,c,d,e,g,o,q,oacute,aogonek,cacute,eogonek" 	k="16" />
<hkern g1="w" 	g2="J" 	k="61" />
<hkern g1="w" 	g2="asterisk" 	k="61" />
<hkern g1="w" 	g2="registered" 	k="-29" />
<hkern g1="w" 	g2="trademark" 	k="27" />
<hkern g1="w" 	g2="slash" 	k="20" />
<hkern g1="w" 	g2="comma,period,ellipsis" 	k="74" />
<hkern g1="w" 	g2="z,zacute,zdotaccent" 	k="37" />
<hkern g1="y" 	g2="T" 	k="82" />
<hkern g1="y" 	g2="Y" 	k="74" />
<hkern g1="y" 	g2="j" 	k="20" />
<hkern g1="y" 	g2="a,c,d,e,g,o,q,oacute,aogonek,cacute,eogonek" 	k="16" />
<hkern g1="y" 	g2="J" 	k="78" />
<hkern g1="y" 	g2="registered" 	k="-29" />
<hkern g1="y" 	g2="trademark" 	k="-8" />
<hkern g1="y" 	g2="slash" 	k="41" />
<hkern g1="y" 	g2="comma,period,ellipsis" 	k="109" />
<hkern g1="y" 	g2="z,zacute,zdotaccent" 	k="20" />
<hkern g1="z,zacute,zdotaccent" 	g2="T" 	k="61" />
<hkern g1="z,zacute,zdotaccent" 	g2="Y" 	k="57" />
<hkern g1="z,zacute,zdotaccent" 	g2="a,c,d,e,g,o,q,oacute,aogonek,cacute,eogonek" 	k="20" />
<hkern g1="z,zacute,zdotaccent" 	g2="u" 	k="41" />
<hkern g1="z,zacute,zdotaccent" 	g2="registered" 	k="-23" />
<hkern g1="z,zacute,zdotaccent" 	g2="V" 	k="20" />
<hkern g1="z,zacute,zdotaccent" 	g2="hyphen,endash,emdash" 	k="20" />
<hkern g1="F" 	g2="W" 	k="16" />
<hkern g1="F" 	g2="Y" 	k="33" />
<hkern g1="F" 	g2="w" 	k="20" />
<hkern g1="F" 	g2="y" 	k="20" />
<hkern g1="F" 	g2="A,Aogonek" 	k="90" />
<hkern g1="F" 	g2="S,Sacute" 	k="33" />
<hkern g1="F" 	g2="Z,Zacute,Zdotaccent" 	k="41" />
<hkern g1="F" 	g2="C,G,O,Q,Oacute,Cacute" 	k="20" />
<hkern g1="F" 	g2="a,c,d,e,g,o,q,oacute,aogonek,cacute,eogonek" 	k="20" />
<hkern g1="F" 	g2="J" 	k="287" />
<hkern g1="F" 	g2="t" 	k="20" />
<hkern g1="F" 	g2="u" 	k="31" />
<hkern g1="F" 	g2="guillemotleft,guilsinglleft" 	k="41" />
<hkern g1="F" 	g2="comma,period,ellipsis" 	k="156" />
<hkern g1="F" 	g2="m,n,p,r,nacute" 	k="41" />
<hkern g1="F" 	g2="s,sacute" 	k="31" />
<hkern g1="F" 	g2="z,zacute,zdotaccent" 	k="41" />
<hkern g1="J" 	g2="J" 	k="82" />
<hkern g1="J" 	g2="comma,period,ellipsis" 	k="41" />
<hkern g1="P" 	g2="T" 	k="61" />
<hkern g1="P" 	g2="Y" 	k="37" />
<hkern g1="P" 	g2="A,Aogonek" 	k="182" />
<hkern g1="P" 	g2="S,Sacute" 	k="20" />
<hkern g1="P" 	g2="Z,Zacute,Zdotaccent" 	k="205" />
<hkern g1="P" 	g2="a,c,d,e,g,o,q,oacute,aogonek,cacute,eogonek" 	k="41" />
<hkern g1="P" 	g2="J" 	k="270" />
<hkern g1="P" 	g2="hyphen,endash,emdash" 	k="20" />
<hkern g1="P" 	g2="guillemotleft,guilsinglleft" 	k="20" />
<hkern g1="P" 	g2="comma,period,ellipsis" 	k="305" />
<hkern g1="P" 	g2="z,zacute,zdotaccent" 	k="41" />
<hkern g1="V" 	g2="U" 	k="20" />
<hkern g1="V" 	g2="A,Aogonek" 	k="176" />
<hkern g1="V" 	g2="S,Sacute" 	k="41" />
<hkern g1="V" 	g2="Z,Zacute,Zdotaccent" 	k="41" />
<hkern g1="V" 	g2="a,c,d,e,g,o,q,oacute,aogonek,cacute,eogonek" 	k="74" />
<hkern g1="V" 	g2="f" 	k="31" />
<hkern g1="V" 	g2="J" 	k="180" />
<hkern g1="V" 	g2="u" 	k="41" />
<hkern g1="V" 	g2="hyphen,endash,emdash" 	k="176" />
<hkern g1="V" 	g2="guillemotleft,guilsinglleft" 	k="133" />
<hkern g1="V" 	g2="comma,period,ellipsis" 	k="174" />
<hkern g1="V" 	g2="m,n,p,r,nacute" 	k="41" />
<hkern g1="V" 	g2="s,sacute" 	k="41" />
<hkern g1="V" 	g2="z,zacute,zdotaccent" 	k="180" />
<hkern g1="V" 	g2="guillemotright,guilsinglright" 	k="133" />
<hkern g1="X" 	g2="T" 	k="37" />
<hkern g1="X" 	g2="u" 	k="37" />
<hkern g1="X" 	g2="hyphen,endash,emdash" 	k="176" />
<hkern g1="X" 	g2="guillemotleft,guilsinglleft" 	k="82" />
<hkern g1="X" 	g2="guillemotright,guilsinglright" 	k="74" />
<hkern g1="parenleft,bracketleft,braceleft" 	g2="j" 	k="-131" />
<hkern g1="hyphen,endash,emdash" 	g2="Y" 	k="174" />
<hkern g1="hyphen,endash,emdash" 	g2="Z,Zacute,Zdotaccent" 	k="41" />
<hkern g1="hyphen,endash,emdash" 	g2="V" 	k="57" />
<hkern g1="hyphen,endash,emdash" 	g2="x" 	k="53" />
<hkern g1="hyphen,endash,emdash" 	g2="X" 	k="41" />
<hkern g1="guillemotleft,guilsinglleft" 	g2="T" 	k="188" />
<hkern g1="guillemotleft,guilsinglleft" 	g2="W" 	k="37" />
<hkern g1="guillemotleft,guilsinglleft" 	g2="Y" 	k="150" />
<hkern g1="guillemotleft,guilsinglleft" 	g2="Z,Zacute,Zdotaccent" 	k="33" />
<hkern g1="guillemotleft,guilsinglleft" 	g2="V" 	k="109" />
<hkern g1="guillemotleft,guilsinglleft" 	g2="x" 	k="16" />
<hkern g1="guillemotleft,guilsinglleft" 	g2="X" 	k="33" />
<hkern g1="guillemotright,guilsinglright" 	g2="T" 	k="172" />
<hkern g1="guillemotright,guilsinglright" 	g2="W" 	k="37" />
<hkern g1="guillemotright,guilsinglright" 	g2="Y" 	k="156" />
<hkern g1="guillemotright,guilsinglright" 	g2="S,Sacute" 	k="61" />
<hkern g1="guillemotright,guilsinglright" 	g2="Z,Zacute,Zdotaccent" 	k="41" />
<hkern g1="guillemotright,guilsinglright" 	g2="J" 	k="61" />
<hkern g1="guillemotright,guilsinglright" 	g2="V" 	k="115" />
<hkern g1="guillemotright,guilsinglright" 	g2="x" 	k="37" />
<hkern g1="quotedbl,quotesingle" 	g2="A,Aogonek" 	k="156" />
<hkern g1="quotedbl,quotesingle" 	g2="comma,period,ellipsis" 	k="264" />
<hkern g1="quotedbl,quotesingle" 	g2="s,sacute" 	k="41" />
<hkern g1="quoteright,quotedblright" 	g2="A,Aogonek" 	k="176" />
<hkern g1="quoteright,quotedblright" 	g2="a,c,d,e,g,o,q,oacute,aogonek,cacute,eogonek" 	k="57" />
<hkern g1="quoteright,quotedblright" 	g2="comma,period,ellipsis" 	k="319" />
<hkern g1="quoteright,quotedblright" 	g2="s,sacute" 	k="82" />
<hkern g1="v" 	g2="T" 	k="82" />
<hkern g1="v" 	g2="Y" 	k="41" />
<hkern g1="v" 	g2="j" 	k="20" />
<hkern g1="v" 	g2="A,Aogonek" 	k="37" />
<hkern g1="v" 	g2="a,c,d,e,g,o,q,oacute,aogonek,cacute,eogonek" 	k="16" />
<hkern g1="v" 	g2="J" 	k="78" />
<hkern g1="v" 	g2="comma,period,ellipsis" 	k="109" />
<hkern g1="v" 	g2="z,zacute,zdotaccent" 	k="37" />
<hkern g1="x" 	g2="T" 	k="182" />
<hkern g1="x" 	g2="Y" 	k="57" />
<hkern g1="x" 	g2="a,c,d,e,g,o,q,oacute,aogonek,cacute,eogonek" 	k="53" />
<hkern g1="x" 	g2="hyphen,endash,emdash" 	k="72" />
<hkern g1="x" 	g2="guillemotleft,guilsinglleft" 	k="37" />
<hkern g1="x" 	g2="guillemotright,guilsinglright" 	k="33" />
</font>
</defs></svg> 